{"total_results": 417702, "total_pages": 20886, "page": 3, "results": [{"poster_path": "/iiZZdoQBEYBv6id8su7ImL0oCbD.jpg", "title": "Spider-Man: Into the Spider-Verse", "overview": "Miles Morales is juggling his life between being a high school student and being a spider-man. When Wilson \"Kingpin\" Fisk uses a super collider, others from across the Spider-Verse are transported to this dimension.", "release_date": "2018-12-07", "popularity": 57.421, "original_title": "Spider-Man: Into the Spider-Verse", "backdrop_path": "/uUiId6cG32JSRI6RyBQSvQtLjz2.jpg", "vote_count": 3849, "video": false, "adult": false, "vote_average": 8.4, "genre_ids": [28, 12, 16, 878, 35], "id": 324857, "original_language": "en"}, {"poster_path": "/vSNxAJTlD0r02V9sPYpOjqDZXUK.jpg", "title": "Captain America: The First Avenger", "overview": "During World War II, Steve Rogers is a sickly man from Brooklyn who's transformed into super-soldier Captain America to aid in the war effort. Rogers must stop the Red Skull \u2013 Adolf Hitler's ruthless head of weaponry, and the leader of an organization that intends to use a mysterious device of untold powers for world domination.", "release_date": "2011-07-22", "popularity": 57.084, "original_title": "Captain America: The First Avenger", "backdrop_path": "/pmZtj1FKvQqISS6iQbkiLg5TAsr.jpg", "vote_count": 12672, "video": false, "adult": false, "vote_average": 6.9, "genre_ids": [28, 12, 878], "id": 1771, "original_language": "en"}, {"poster_path": "/y31QB9kn3XSudA15tV7UWQ9XLuW.jpg", "title": "Guardians of the Galaxy", "overview": "Light years from Earth, 26 years after being abducted, Peter Quill finds himself the prime target of a manhunt after discovering an orb wanted by Ronan the Accuser.", "release_date": "2014-07-30", "popularity": 55.224, "original_title": "Guardians of the Galaxy", "backdrop_path": "/bHarw8xrmQeqf3t8HpuMY7zoK4x.jpg", "vote_count": 17770, "video": false, "adult": false, "vote_average": 7.9, "genre_ids": [28, 878, 12], "id": 118340, "original_language": "en"}, {"poster_path": "/rXPxSAYf3FdQktnOtQnvhUPMhFp.jpg", "title": "Avengement", "overview": "While on a prison furlough, a lowly criminal evades his guards and returns to his old stomping ground to take revenge on the people who turned him into a cold blooded killer.", "release_date": "2019-05-24", "popularity": 53.556, "original_title": "Avengement", "backdrop_path": "/gUnZ7gu45MjvkO8DczARXGNfYVP.jpg", "vote_count": 3, "video": false, "adult": false, "vote_average": 7.7, "genre_ids": [80, 28], "id": 534490, "original_language": "en"}, {"poster_path": "/bP8T3WWpFTvyITSzetR3UCnG45M.jpg", "title": "Extremely Wicked, Shockingly Evil and Vile", "overview": "A chronicle of the crimes of Ted Bundy, from the perspective of his longtime girlfriend, Elizabeth Kloepfer, who refused to believe the truth about him for years.", "release_date": "2019-05-02", "popularity": 52.588, "original_title": "Extremely Wicked, Shockingly Evil and Vile", "backdrop_path": "/5yXNf13ly6kFQSbI5BZRQlDhCib.jpg", "vote_count": 617, "video": false, "adult": false, "vote_average": 7, "genre_ids": [53, 80, 18, 36], "id": 457799, "original_language": "en"}, {"poster_path": "/jhZlXSnFUpNiLAek9EkPrtLEWQI.jpg", "title": "The Curse of La Llorona", "overview": "A social worker dealing with the disappearance of two children fears for her own family after beginning the investigation.", "release_date": "2019-04-17", "popularity": 51.786, "original_title": "The Curse of La Llorona", "backdrop_path": "/u2vGggeMPAkhEtD7bYGfeThsQiM.jpg", "vote_count": 294, "video": false, "adult": false, "vote_average": 5.5, "genre_ids": [53, 27, 9648], "id": 480414, "original_language": "en"}, {"poster_path": "/jOYUbe61DQiY628inVkR1KERS30.jpg", "title": "Redcon-1", "overview": "After a zombie apocalypse spreads from a London prison, the UK is brought to its knees. The spread of the virus is temporarily contained but, without a cure, it\u2019s only a matter of time before it breaks its boundaries and the biggest problem of all\u2026 any zombies with combat skills are now enhanced. With the South East of England quarantined from the rest of the world using fortified borders, intelligence finds that the scientist responsible for the outbreak is alive and well in London. With his recovery being the only hope of a cure, a squad of eight Special Forces soldiers is sent on a suicide mission to the city, now ruled by the undead, with a single task: get him out alive within 72 hours by any means necessary. What emerges is an unlikely pairing on a course to save humanity against ever-rising odds.", "release_date": "2018-09-28", "popularity": 51.659, "original_title": "Redcon-1", "backdrop_path": "/palbhPOSYf2g1p18vWd91dDhZLM.jpg", "vote_count": 34, "video": false, "adult": false, "vote_average": 4.3, "genre_ids": [28, 27], "id": 485811, "original_language": "en"}, {"poster_path": "/t90Y3G8UGQp0f0DrP60wRu9gfrH.jpg", "title": "Avengers: Age of Ultron", "overview": "When Tony Stark tries to jumpstart a dormant peacekeeping program, things go awry and Earth\u2019s Mightiest Heroes are put to the ultimate test as the fate of the planet hangs in the balance. As the villainous Ultron emerges, it is up to The Avengers to stop him from enacting his terrible plans, and soon uneasy alliances and unexpected action pave the way for an epic and unique global adventure.", "release_date": "2015-04-22", "popularity": 51.124, "original_title": "Avengers: Age of Ultron", "backdrop_path": "/rFtsE7Lhlc2jRWF7SRAU0fvrveQ.jpg", "vote_count": 13307, "video": false, "adult": false, "vote_average": 7.3, "genre_ids": [28, 12, 878], "id": 99861, "original_language": "en"}, {"poster_path": "/q3mKnSkzp1doIsCye6ap4KIUAbu.jpg", "title": "The Secret Life of Pets 2", "overview": "The further adventures of Max the dog and his furry animal friends.", "release_date": "2019-05-24", "popularity": 50.637, "original_title": "The Secret Life of Pets 2", "backdrop_path": "/5mFcjZ58f9Pqg5RNv493XlfgzIX.jpg", "vote_count": 8, "video": false, "adult": false, "vote_average": 5.4, "genre_ids": [12, 16, 35, 10751], "id": 412117, "original_language": "en"}, {"poster_path": "/fMMrl8fD9gRCFJvsx0SuFwkEOop.jpg", "title": "Fantastic Beasts: The Crimes of Grindelwald", "overview": "Gellert Grindelwald has escaped imprisonment and has begun gathering followers to his cause\u2014elevating wizards above all non-magical beings. The only one capable of putting a stop to him is the wizard he once called his closest friend, Albus Dumbledore. However, Dumbledore will need to seek help from the wizard who had thwarted Grindelwald once before, his former student Newt Scamander, who agrees to help, unaware of the dangers that lie ahead. Lines are drawn as love and loyalty are tested, even among the truest friends and family, in an increasingly divided wizarding world.", "release_date": "2018-11-14", "popularity": 50.59, "original_title": "Fantastic Beasts: The Crimes of Grindelwald", "backdrop_path": "/qrtRKRzoNkf5vemO9tJ2Y4DrHxQ.jpg", "vote_count": 4753, "video": false, "adult": false, "vote_average": 6.9, "genre_ids": [12], "id": 338952, "original_language": "en"}, {"poster_path": "/27ggCrmmrwhWuCaFyqIbhYmqY5Y.jpg", "title": "Rim of the World", "overview": "Four misfit teenagers become unlikely allies when their summer camp experience is cut short by an alien invasion. In this epic adventure film, the youths must overcome their fears, tackle insecurities, and learn to work as a team while they attempt to save the world.", "release_date": "2019-05-24", "popularity": 50.259, "original_title": "Rim of the World", "backdrop_path": "/wsjcWHezujlzhBpED3KXq3JkxmB.jpg", "vote_count": 63, "video": false, "adult": false, "vote_average": 5.9, "genre_ids": [878, 12, 28, 35], "id": 531306, "original_language": "en"}, {"poster_path": "/tkt9xR1kNX5R9rCebASKck44si2.jpg", "title": "Pirates of the Caribbean: The Curse of the Black Pearl", "overview": "Jack Sparrow, a freewheeling 18th-century pirate, quarrels with a rival pirate bent on pillaging Port Royal. When the governor's daughter is kidnapped, Sparrow decides to help the girl's love save her.", "release_date": "2003-07-09", "popularity": 50.254, "original_title": "Pirates of the Caribbean: The Curse of the Black Pearl", "backdrop_path": "/8AUQ7YlJJA9C8kWk8P4YNHIcFDE.jpg", "vote_count": 12270, "video": false, "adult": false, "vote_average": 7.7, "genre_ids": [12, 14, 28], "id": 22, "original_language": "en"}, {"poster_path": "/3TZCBAdKQiz0cGKGEjZiyZUA01O.jpg", "title": "Fighting with My Family", "overview": "Born into a tight-knit wrestling family, Paige and her brother Zak are ecstatic when they get the once-in-a-lifetime opportunity to try out for the WWE. But when only Paige earns a spot in the competitive training program, she must leave her loved ones behind and face this new cutthroat world alone. Paige's journey pushes her to dig deep and ultimately prove to the world that what makes her different is the very thing that can make her a star.", "release_date": "2019-02-14", "popularity": 49.782, "original_title": "Fighting with My Family", "backdrop_path": "/mYKP6qcDUimVMAHQWLOuDHjO19S.jpg", "vote_count": 237, "video": false, "adult": false, "vote_average": 6.5, "genre_ids": [35, 18], "id": 445629, "original_language": "en"}, {"poster_path": "/7BsvSuDQuoqhWmU2fL7W2GOcZHU.jpg", "title": "Green Book", "overview": "Tony Lip, a bouncer in 1962, is hired to drive pianist Don Shirley on a tour through the Deep South in the days when African Americans, forced to find alternate accommodations and services due to segregation laws below the Mason-Dixon Line, relied on a guide called The Negro Motorist Green Book.", "release_date": "2018-11-16", "popularity": 49.759, "original_title": "Green Book", "backdrop_path": "/78PjwaykLY2QqhMfWRDvmfbC6EV.jpg", "vote_count": 3289, "video": false, "adult": false, "vote_average": 8.3, "genre_ids": [18, 35], "id": 490132, "original_language": "en"}, {"poster_path": "/279PwJAcelI4VuBtdzrZASqDPQr.jpg", "title": "Dumbo", "overview": "A young elephant, whose oversized ears enable him to fly, helps save a struggling circus, but when the circus plans a new venture, Dumbo and his friends discover dark secrets beneath its shiny veneer.", "release_date": "2019-03-27", "popularity": 49.741, "original_title": "Dumbo", "backdrop_path": "/5tFt6iuGnKapHl5tw0X0cKcnuVo.jpg", "vote_count": 1167, "video": false, "adult": false, "vote_average": 6.6, "genre_ids": [12, 10751, 14, 16], "id": 329996, "original_language": "en"}, {"poster_path": "/8Ls1tZ6qjGzfGHjBB7ihOnf7f0b.jpg", "title": "Escape Room", "overview": "Six strangers find themselves in circumstances beyond their control, and must use their wits to survive.", "release_date": "2019-01-03", "popularity": 48.489, "original_title": "Escape Room", "backdrop_path": "/mWLljCmpqlcYQh7uh51BBMwCZwN.jpg", "vote_count": 1171, "video": false, "adult": false, "vote_average": 6.3, "genre_ids": [53, 28, 27, 878], "id": 522681, "original_language": "en"}, {"poster_path": "/9hBpFyJ3pGdupXbaC2L7nGvLMBn.jpg", "title": "Greta", "overview": "A young woman returns an elderly widow\u2019s lost purse, leading to an unlikely relationship between the two \u2014 until the young woman discovers her elder might not be all that she seems.", "release_date": "2019-02-28", "popularity": 48.358, "original_title": "Greta", "backdrop_path": "/n67gpLtNFXqpGkM2ZdQoPLjTnI.jpg", "vote_count": 89, "video": false, "adult": false, "vote_average": 6, "genre_ids": [53, 18, 9648], "id": 471506, "original_language": "en"}, {"poster_path": "/d5uA1DdiWK5KH5yzyMfh1X3uXie.jpg", "title": "See You Yesterday", "overview": "Two teenagers build time machines to save one's brother from being killed by the police.", "release_date": "2019-05-17", "popularity": 48.351, "original_title": "See You Yesterday", "backdrop_path": "/lK7IphewdNxLYXZB1sDh99lgHoM.jpg", "vote_count": 100, "video": false, "adult": false, "vote_average": 5.4, "genre_ids": [878, 18], "id": 582607, "original_language": "en"}, {"poster_path": "/7f53XAE4nPiGe9XprpGAeWHuKPw.jpg", "title": "Aladdin", "overview": "Princess Jasmine grows tired of being forced to remain in the palace, so she sneaks out into the marketplace, in disguise, where she meets street-urchin Aladdin.  The couple falls in love, although Jasmine may only marry a prince.  After being thrown in jail, Aladdin becomes embroiled in a plot to find a mysterious lamp, with which the evil Jafar hopes to rule the land.", "release_date": "1992-11-25", "popularity": 48.185, "original_title": "Aladdin", "backdrop_path": "/oZN5w508NSlrmcMql1wohhsQGIg.jpg", "vote_count": 6326, "video": false, "adult": false, "vote_average": 7.6, "genre_ids": [16, 10751, 12, 14, 10749], "id": 812, "original_language": "en"}, {"poster_path": "/lvfIaThG5HA8THf76nghKinjjji.jpg", "title": "Ralph Breaks the Internet", "overview": "Video game bad guy Ralph and fellow misfit Vanellope von Schweetz must risk it all by traveling to the World Wide Web in search of a replacement part to save Vanellope's video game, \"Sugar Rush.\" In way over their heads, Ralph and Vanellope rely on the citizens of the internet -- the netizens -- to help navigate their way, including an entrepreneur named Yesss, who is the head algorithm and the heart and soul of trend-making site BuzzzTube.", "release_date": "2018-11-20", "popularity": 48.158, "original_title": "Ralph Breaks the Internet", "backdrop_path": "/88poTBTafMXaz73vYi3c74g0y2k.jpg", "vote_count": 2512, "video": false, "adult": false, "vote_average": 7.2, "genre_ids": [10751, 16, 35, 14], "id": 404368, "original_language": "en"}]}