{"total_results": 417702, "total_pages": 20886, "page": 2, "results": [{"poster_path": "/Awyg5IdELQV3sBoErhJ9QVcX8TA.jpg", "title": "Booksmart", "overview": "Two academic teenage superstars realize, on the eve of their high school graduation, that they should have worked less and played more. Determined to never fall short of their peers, the girls set out on a mission to cram four years of fun into one night.", "release_date": "2019-05-24", "popularity": 90.475, "original_title": "Booksmart", "backdrop_path": "/4dUZKnC1QABSwFPjGZDU1UVEImz.jpg", "vote_count": 41, "video": false, "adult": false, "vote_average": 6.2, "genre_ids": [35, 18, 10749], "id": 505600, "original_language": "en"}, {"poster_path": "/bk8LyaMqUtaQ9hUShuvFznQYQKR.jpg", "title": "Hellboy", "overview": "Hellboy comes to England, where he must defeat Nimue, Merlin's consort and the Blood Queen. But their battle will bring about the end of the world, a fate he desperately tries to turn away.", "release_date": "2019-04-10", "popularity": 84.874, "original_title": "Hellboy", "backdrop_path": "/5BkSkNtfrnTuKOtTaZhl8avn4wU.jpg", "vote_count": 422, "video": false, "adult": false, "vote_average": 5, "genre_ids": [28, 12, 14], "id": 456740, "original_language": "en"}, {"poster_path": "/1GyvpwvgswOrHvxjnw2FBLNkTyo.jpg", "title": "Detective Conan: The Fist of Blue Sapphire", "overview": "23rd Detective Conan Movie.", "release_date": "2019-04-12", "popularity": 79.787, "original_title": "\u540d\u63a2\u5075\u30b3\u30ca\u30f3 \u7d3a\u9752\u306e\u62f3\uff08\u30d5\u30a3\u30b9\u30c8\uff09", "backdrop_path": "/wf6VDSi4aFCZfuD8sX8JAKLfJ5m.jpg", "vote_count": 10, "video": false, "adult": false, "vote_average": 4.7, "genre_ids": [16, 28, 18, 9648, 35], "id": 566555, "original_language": "ja"}, {"poster_path": "/kSBXou5Ac7vEqKd97wotJumyJvU.jpg", "title": "Captain America: Civil War", "overview": "Following the events of Age of Ultron, the collective governments of the world pass an act designed to regulate all superhuman activity. This polarizes opinion amongst the Avengers, causing two factions to side with Iron Man or Captain America, which causes an epic battle between former allies.", "release_date": "2016-04-27", "popularity": 79.047, "original_title": "Captain America: Civil War", "backdrop_path": "/yi3hZ4mQq8JGyJSi3MBW5nMj1f.jpg", "vote_count": 13864, "video": false, "adult": false, "vote_average": 7.4, "genre_ids": [12, 28, 878], "id": 271110, "original_language": "en"}, {"poster_path": "/u3B2YKUjWABcxXZ6Nm9h10hLUbh.jpg", "title": "After", "overview": "A young woman falls for a guy with a dark secret and the two embark on a rocky relationship.", "release_date": "2019-04-11", "popularity": 76.654, "original_title": "After", "backdrop_path": "/997ToEZvF2Obp9zNZbY5ELVnmrW.jpg", "vote_count": 980, "video": false, "adult": false, "vote_average": 6, "genre_ids": [18, 10749], "id": 537915, "original_language": "en"}, {"poster_path": "/bOiHlY5JD8GLp7BvWdHkfEftzhQ.jpg", "title": "A Madea Family Funeral", "overview": "A joyous family reunion becomes a hilarious nightmare as Madea and the crew travel to backwoods Georgia, where they find themselves unexpectedly planning a funeral that might unveil unpleasant family secrets.", "release_date": "2019-03-01", "popularity": 75.552, "original_title": "A Madea Family Funeral", "backdrop_path": "/piGjUloiaq6qTpaDLisyDyEsx9i.jpg", "vote_count": 318, "video": false, "adult": false, "vote_average": 5.6, "genre_ids": [35], "id": 464504, "original_language": "en"}, {"poster_path": "/4MDB6jJl3U7xK1Gw64zIqt9pQA4.jpg", "title": "Little", "overview": "A woman receives the chance to relive the life of her younger self, at a point in her life when the pressures of adulthood become too much for her to bear.", "release_date": "2019-04-04", "popularity": 68.683, "original_title": "Little", "backdrop_path": "/tmM78qRhpg0i2Cky8Q8hXKASOXY.jpg", "vote_count": 65, "video": false, "adult": false, "vote_average": 6.1, "genre_ids": [35, 14], "id": 526050, "original_language": "en"}, {"poster_path": "/cezWGskPY5x7GaglTTRN4Fugfb8.jpg", "title": "The Avengers", "overview": "When an unexpected enemy emerges and threatens global safety and security, Nick Fury, director of the international peacekeeping agency known as S.H.I.E.L.D., finds himself in need of a team to pull the world back from the brink of disaster. Spanning the globe, a daring recruitment effort begins!", "release_date": "2012-04-25", "popularity": 67.59, "original_title": "The Avengers", "backdrop_path": "/hbn46fQaRmlpBuUrEiFqv0GDL6Y.jpg", "vote_count": 19486, "video": false, "adult": false, "vote_average": 7.6, "genre_ids": [878, 28, 12], "id": 24428, "original_language": "en"}, {"poster_path": "/rzRwTcFvttcN1ZpX2xv4j3tSdJu.jpg", "title": "Thor: Ragnarok", "overview": "Thor is imprisoned on the other side of the universe and finds himself in a race against time to get back to Asgard to stop Ragnarok, the destruction of his home-world and the end of Asgardian civilization, at the hands of an all-powerful new threat, the ruthless Hela.", "release_date": "2017-10-25", "popularity": 65.408, "original_title": "Thor: Ragnarok", "backdrop_path": "/kaIfm5ryEOwYg8mLbq8HkPuM1Fo.jpg", "vote_count": 11252, "video": false, "adult": false, "vote_average": 7.5, "genre_ids": [28, 12, 35, 14], "id": 284053, "original_language": "en"}, {"poster_path": "/6sOFQDlkY6El1B2P5gklzJfVdsT.jpg", "title": "Kamen Rider Heisei Generations FOREVER", "overview": "In the world of Sougo Tokiwa and Sento Kiryu, their \"companions\" are losing their memories one after the other as they're replaced by other people. The Super Time Jacker, Tid , appears before them. He orders his powerful underlings, Another Double and Another Den-O, to pursue a young boy called Shingo. While fighting to protect Shingo, Sougo meets Ataru, a young man who loves Riders, but Ataru says that Kamen Riders aren't real. What is the meaning of those words? While the mystery deepens, the true enemy that Sougo and Sento must defeat appears in the Kuriogatake mountain...", "release_date": "2018-12-22", "popularity": 65.361, "original_title": "\u4eee\u9762\u30e9\u30a4\u30c0\u30fc\u5e73\u6210\u30b8\u30a7\u30cd\u30ec\u30fc\u30b7\u30e7\u30f3\u30baFOREVER", "backdrop_path": "/uufTqD2CSn1NqL3cXEl4Vp3bCav.jpg", "vote_count": 16, "video": false, "adult": false, "vote_average": 5.3, "genre_ids": [28, 12, 878], "id": 543103, "original_language": "ja"}, {"poster_path": "/AiRfixFcfTkNbn2A73qVJPlpkUo.jpg", "title": "Robin Hood", "overview": "A war-hardened Crusader and his Moorish commander mount an audacious revolt against the corrupt English crown.", "release_date": "2018-11-20", "popularity": 63.675, "original_title": "Robin Hood", "backdrop_path": "/axjFiijtxdfK3CD9dMwrdgLwblD.jpg", "vote_count": 1142, "video": false, "adult": false, "vote_average": 5.7, "genre_ids": [12, 28, 53], "id": 375588, "original_language": "en"}, {"poster_path": "/zkXnKIwX5pYorKJp2fjFSfNyKT0.jpg", "title": "John Wick: Chapter 2", "overview": "John Wick is forced out of retirement by a former associate looking to seize control of a shadowy international assassins\u2019 guild. Bound by a blood oath to aid him, Wick travels to Rome and does battle against some of the world\u2019s most dangerous killers.", "release_date": "2017-02-08", "popularity": 60.506, "original_title": "John Wick: Chapter 2", "backdrop_path": "/dQ6s3Ud2KoOs3LKw6xgZr1cw7Yq.jpg", "vote_count": 5677, "video": false, "adult": false, "vote_average": 7, "genre_ids": [53, 28, 80], "id": 324552, "original_language": "en"}, {"poster_path": "/9zRzFJuaj0CHIOhAkcCcFTvyu2X.jpg", "title": "The Hobbit: The Battle of the Five Armies", "overview": "Immediately after the events of The Desolation of Smaug, Bilbo and the dwarves try to defend Erebor's mountain of treasure from others who claim it: the men of the ruined Laketown and the elves of Mirkwood. Meanwhile an army of Orcs led by Azog the Defiler is marching on Erebor, fueled by the rise of the dark lord Sauron. Dwarves, elves and men must unite, and the hope for Middle-Earth falls into Bilbo's hands.", "release_date": "2014-12-10", "popularity": 59.572, "original_title": "The Hobbit: The Battle of the Five Armies", "backdrop_path": "/qhH3GyIfAnGv1pjdV3mw03qAilg.jpg", "vote_count": 8314, "video": false, "adult": false, "vote_average": 7.3, "genre_ids": [28, 12, 14], "id": 122917, "original_language": "en"}, {"poster_path": "/gRgkGpaeoBY6IrHP9FbLrVwdb6F.jpg", "title": "A Hidden Life", "overview": "The Austrian Franz J\u00e4gerst\u00e4tter, a conscientious objector, refuses to fight for the Nazis in World War II and is executed by them in 1943. Opening at J\u00e4gerst\u00e4tter\u2019s home in Austria\u2019s countryside, the film follows Franz and his wife, Fani, along their path of resistance. Told through real wartime letters, this love story finds the couple in conflict with the members of their close-knit town, their church, their government, and even their friends \u2014 all of which brings them to a dramatic choice.", "release_date": "2019-05-19", "popularity": 58.906, "original_title": "A Hidden Life", "backdrop_path": "/ijXdtIFWjZhmvLH9kuqgchKLD2N.jpg", "vote_count": 3, "video": false, "adult": false, "vote_average": 8.5, "genre_ids": [18, 10752], "id": 403300, "original_language": "en"}, {"poster_path": "/oeZh7yEz3PMnZLgBPhrafFHRbVz.jpg", "title": "The Mule", "overview": "Earl Stone, a man in his 80s, is broke, alone, and facing foreclosure of his business when he is offered a job that simply requires him to drive. Easy enough, but, unbeknownst to Earl, he\u2019s just signed on as a drug courier for a Mexican cartel. He does so well that his cargo increases exponentially, and Earl hit the radar of hard-charging DEA agent Colin Bates.", "release_date": "2018-12-14", "popularity": 58.702, "original_title": "The Mule", "backdrop_path": "/bTeRgkAavyw1eCtSkaww18wLYNP.jpg", "vote_count": 1493, "video": false, "adult": false, "vote_average": 6.5, "genre_ids": [80, 18, 53], "id": 504172, "original_language": "en"}, {"poster_path": "/xRWht48C2V8XNfzvPehyClOvDni.jpg", "title": "Alita: Battle Angel", "overview": "When Alita awakens with no memory of who she is in a future world she does not recognize, she is taken in by Ido, a compassionate doctor who realizes that somewhere in this abandoned cyborg shell is the heart and soul of a young woman with an extraordinary past.", "release_date": "2019-01-31", "popularity": 58.581, "original_title": "Alita: Battle Angel", "backdrop_path": "/aQXTw3wIWuFMy0beXRiZ1xVKtcf.jpg", "vote_count": 2013, "video": false, "adult": false, "vote_average": 6.7, "genre_ids": [28, 878, 53, 12], "id": 399579, "original_language": "en"}, {"poster_path": "/fw02ONlDhrYjTSZV8XO6hhU3ds3.jpg", "title": "Bumblebee", "overview": "On the run in the year 1987, Bumblebee finds refuge in a junkyard in a small Californian beach town. Charlie, on the cusp of turning 18 and trying to find her place in the world, discovers Bumblebee, battle-scarred and broken.  When Charlie revives him, she quickly learns this is no ordinary yellow VW bug.", "release_date": "2018-12-15", "popularity": 58.047, "original_title": "Bumblebee", "backdrop_path": "/wtZj5nn6hVwgakPdg6y6gm3eFXU.jpg", "vote_count": 2330, "video": false, "adult": false, "vote_average": 6.4, "genre_ids": [28, 12, 878], "id": 424783, "original_language": "en"}, {"poster_path": "/5Kg76ldv7VxeX9YlcQXiowHgdX6.jpg", "title": "Aquaman", "overview": "Once home to the most advanced civilization on Earth, Atlantis is now an underwater kingdom ruled by the power-hungry King Orm. With a vast army at his disposal, Orm plans to conquer the remaining oceanic people and then the surface world. Standing in his way is Arthur Curry, Orm's half-human, half-Atlantean brother and true heir to the throne.", "release_date": "2018-12-07", "popularity": 57.954, "original_title": "Aquaman", "backdrop_path": "/9QusGjxcYvfPD1THg6oW3RLeNn7.jpg", "vote_count": 5962, "video": false, "adult": false, "vote_average": 6.8, "genre_ids": [28, 12, 14], "id": 297802, "original_language": "en"}, {"poster_path": "/pU3bnutJU91u3b4IeRPQTOP8jhV.jpg", "title": "Godzilla: King of the Monsters", "overview": "The new story follows the heroic efforts of the crypto-zoological agency Monarch as its members face off against a battery of god-sized monsters, including the mighty Godzilla, who collides with Mothra, Rodan, and his ultimate nemesis, the three-headed King Ghidorah. When these ancient super-species\u2014thought to be mere myths\u2014rise again, they all vie for supremacy, leaving humanity\u2019s very existence hanging in the balance.", "release_date": "2019-05-29", "popularity": 57.482, "original_title": "Godzilla: King of the Monsters", "backdrop_path": "/mzRJpkWPjXdXak0WCc8ZxVH4hug.jpg", "vote_count": 8, "video": false, "adult": false, "vote_average": 4.8, "genre_ids": [28, 878, 53], "id": 373571, "original_language": "en"}, {"poster_path": "/gSzyUmg719TgAxarFZYWjLLMqvS.jpg", "title": "The Poison Rose", "overview": "A down-on-his-luck PI is hired by his old flame to investigate a murder. But while the case at first appears routine, it slowly reveals itself to be a complex interwoven web of crimes, suspects, and dead bodies.", "release_date": "2019-05-23", "popularity": 57.466, "original_title": "The Poison Rose", "backdrop_path": "/3foyl4i78mZoeBb8EQ0RR5axu01.jpg", "vote_count": 3, "video": false, "adult": false, "vote_average": 7.7, "genre_ids": [80, 9648], "id": 529983, "original_language": "en"}]}