{"total_results": 56, "total_pages": 3, "page": 1, "results": [{"origin_country": ["JP"], "poster_path": "/2pcTUs20ysCdA6DZclaPmGXD6ph.jpg", "name": "Pok\u00e9mon", "overview": "Join Ash Ketchum, accompanied by his partner Pikachu, as he travels through many regions, meets new friends and faces new challenges on his quest to become a Pok\u00e9mon Master.", "popularity": 79.27, "original_name": "\u30dd\u30b1\u30e2\u30f3", "backdrop_path": "/uxBFkJNwp9DEIE7k6YhKAorVpkp.jpg", "first_air_date": "1997-04-01", "vote_count": 228, "vote_average": 6.38, "media_type": "tv", "original_language": "ja", "id": 60572, "genre_ids": [10759, 16, 35, 10751, 10765]}, {"poster_path": "/wgQ7APnFpf1TuviKHXeEe3KnsTV.jpg", "title": "Pok\u00e9mon Detective Pikachu", "overview": "In a world where people collect pocket-size monsters (Pok\u00e9mon) to do battle, a boy comes across an intelligent monster who seeks to be a detective.", "release_date": "2019-05-03", "popularity": 109.979, "original_title": "Pok\u00e9mon Detective Pikachu", "backdrop_path": "/nDP33LmQwNsnPv29GQazz59HjJI.jpg", "vote_count": 984, "video": false, "adult": false, "vote_average": 7, "media_type": "movie", "genre_ids": [9648, 10751, 35, 878, 28, 12], "id": 447404, "original_language": "en"}, {"origin_country": ["JP"], "poster_path": "/hFIpgUM2cWCZbXe3NILIhR73Cpz.jpg", "name": "Pok\u00e9mon Origins", "overview": "Pok\u00e9mon Origins tells the story of the very first Pok\u00e9mon video games,  Pok\u00e9mon Red Version and Pok\u00e9mon Blue Version. Follow Red as he travels  through the Kanto region, encounters Team Rocket, battles his rival, and  challenges the Pok\u00e9mon League!", "popularity": 12.452, "original_name": "\u30dd\u30b1\u30c3\u30c8\u30e2\u30f3\u30b9\u30bf\u30fc THE ORIGIN", "backdrop_path": "/l7C4VJeQJHrKwYW1ATxXRDjoHcY.jpg", "first_air_date": "2013-10-02", "vote_count": 17, "vote_average": 7.12, "media_type": "tv", "original_language": "ja", "id": 61295, "genre_ids": [10759, 16, 10765]}, {"poster_path": "/54MJClYnEuRBwabSEQyRi2VdnbJ.jpg", "title": "Pok\u00e9mon: Mewtwo Returns", "overview": "In this direct-to-video sequel to Pok\u00e9mon: The First Movie, Ash, Misty, and Brock continue exploring the Johto region, then have to rescue Pikachu after Jessie and James of Team Rocket kidnap him. The search leads them to the hidden plateau where Mewtwo has established a haven for the cloned Pok\u00e9mon from the previous film. The evil Giovanni is plotting to recapture Mewtwo and renew his efforts to create an army of bio-engineered Pok\u00e9mon. Aided by the reluctant Meowth, Ash and his friends defeat Giovanni and his henchman.", "release_date": "2000-12-30", "popularity": 8.562, "original_title": "Pok\u00e9mon: Mewtwo Returns", "backdrop_path": "/s1FW8gCXSmSlsHvKZqbgJuuGCH2.jpg", "vote_count": 141, "video": false, "adult": false, "vote_average": 6.4, "media_type": "movie", "genre_ids": [16, 10751], "id": 36897, "original_language": "en"}, {"origin_country": ["JP"], "poster_path": "/wjQKZR2IdQpAZU1ngPHGzrqcknb.jpg", "name": "Pok\u00e9mon Chronicles", "overview": "Pok\u00e9mon Chronicles, partly known in Japan as Pocket Monsters Side Stories, is a spin-off series of the Pok\u00e9mon anime, revolving around characters other than Ash Ketchum.\n\nIt first aired in Britain on Toonami, where the initial run has now finished. The only places where episodes are currently airing for the first time are the Caribbean, and Latin America on Cartoon Network Monday to Friday at 9:00pm EST/ 10:00 MXT. The show airs in India on Cartoon Network Thursday and Friday at 7:30pm IST. However, in Latin America, it seems the show has been cancelled because Poo Poo Power was put when Pok\u00e9mon Chronicles usually is. The series made its U.S. premiere on Cartoon Network on June 3, 2006 at 7 PM US ET/PT after it ended in most other countries. In addition, episodes are available online through Cartoon Network's \"Toonami Jetstream\" online video site, and moved to the Miguzi block for November at 5:30 PM US EST on November 6, 2006.\n\nFour DVDs have been released in the United Kingdom, with a U.S. release still non-existent. All of the episodes have been released as extras on the first six season box sets of Pok\u00e9mon in Australia. A box set containing all 22 episodes has also been released in Australia.", "popularity": 2.404, "original_name": "Pok\u00e9mon Chronicles", "backdrop_path": "/mc06abIMMQfGj3TZRSlbvZd0vC7.jpg", "first_air_date": "2006-06-03", "vote_count": 3, "vote_average": 7.33, "media_type": "tv", "original_language": "en", "id": 13230, "genre_ids": [16, 10762]}, {"poster_path": "/ga8kZrYA1VEg5sVRtrKLGSehJE.jpg", "title": "Pok\u00e9mon Heroes: Latios and Latias", "overview": "Ash, Pikachu and his friends try and stop a pair of thieves hiding out in the canals and alleyways of Alto Mare, the age-old water capital. Joining the adventure are two new legendary Pok\u00e9mon, a pair of siblings named Latias and Latios, who serve as peacekeepers and protectors of the Soul Dew - a priceless treasure with a mysterious power.", "release_date": "2002-07-13", "popularity": 8.038, "original_title": "\u5287\u5834\u7248\u30dd\u30b1\u30c3\u30c8\u30e2\u30f3\u30b9\u30bf\u30fc \u6c34\u306e\u90fd\u306e\u8b77\u795e \u30e9\u30c6\u30a3\u30a2\u30b9\u3068\u30e9\u30c6\u30a3\u30aa\u30b9", "backdrop_path": "/sZ5vL6LJTcvo7bgCpQTPIhefLCe.jpg", "vote_count": 138, "video": false, "adult": false, "vote_average": 6.3, "media_type": "movie", "genre_ids": [28, 12, 16, 14], "id": 33875, "original_language": "ja"}, {"origin_country": ["US"], "poster_path": "/fnl8yT6ynD55gZrCYwoVsiiy3Cm.jpg", "name": "Pok\u00e9mon Generations", "overview": "The miniseries revisits each generation of the Pok\u00e9mon video game series to shed new light on some timeless moments. From the earliest days in the Kanto region to the splendor of the Kalos region, go behind the scenes and witness Pok\u00e9mon history with new eyes!", "popularity": 1.729, "original_name": "\u30dd\u30b1\u30e2\u30f3\u30b8\u30a7\u30cd\u30ec\u30fc\u30b7\u30e7\u30f3\u30ba", "backdrop_path": "/vNMCz82F6sffmdlH7xsdd1Sau9k.jpg", "first_air_date": "2016-09-16", "vote_count": 8, "vote_average": 7.5, "media_type": "tv", "original_language": "ja", "id": 67882, "genre_ids": [10765, 16]}, {"poster_path": "/aalTziefHGUVLg44iyWS8B7ee5u.jpg", "title": "Pok\u00e9mon: The First Movie - Mewtwo Strikes Back", "overview": "The adventure explodes into action with the debut of Mewtwo, a bio-engineered Pokemon created from the DNA of Mew, the rarest of all Pokemon. Determined to prove its superiority, Mewtwo lures Ash, Pikachu and others into a Pokemon match like none before. Mewtwo vs. Mew. Super-clones vs. Pokemon. It's the ultimate showdown ... with the very future of the world at stake!", "release_date": "1998-07-18", "popularity": 13.907, "original_title": "\u5287\u5834\u7248\u30dd\u30b1\u30c3\u30c8\u30e2\u30f3\u30b9\u30bf\u30fc \u30df\u30e5\u30a6\u30c4\u30fc\u306e\u9006\u8972", "backdrop_path": "/xZvVOnaM3b2te7rf7u4gRVDcamR.jpg", "vote_count": 690, "video": false, "adult": false, "vote_average": 6.8, "media_type": "movie", "genre_ids": [16], "id": 10228, "original_language": "ja"}, {"poster_path": "/a6hylLOcbEn40GnDb3rGNWJUOtG.jpg", "title": "Pok\u00e9mon: Jirachi Wish Maker", "overview": "Satoshi, Haruka, Takeshi, and Masato come upon the festival of the Wishing Star of Seven Nights. During their enjoyment, the legendary Pokemon--Jirachi, decends from the heavens and befriends Masato. Jirachi, with the power to grant any wish, is sought after by many people wanting to claim its power. One man seeks to use its legendary power to revive an ancient pokemon known as Groudon, unaware of the dangers hidden within Jirachi's powers", "release_date": "2003-07-19", "popularity": 7.465, "original_title": "\u5287\u5834\u7248\u30dd\u30b1\u30c3\u30c8\u30e2\u30f3\u30b9\u30bf\u30fc\u30a2\u30c9\u30d0\u30f3\u30b9\u30b8\u30a7\u30cd\u30ec\u30fc\u30b7\u30e7\u30f3 \u4e03\u591c\u306e\u9858\u3044\u661f \u30b8\u30e9\u30fc\u30c1", "backdrop_path": "/yWl2xNPc30P9SAbCUduFpeiztUd.jpg", "vote_count": 106, "video": false, "adult": false, "vote_average": 6.2, "media_type": "movie", "genre_ids": [28, 16, 12, 10751], "id": 36218, "original_language": "ja"}, {"poster_path": "/5ILjS6XB5deiHop8SXPsYxXWVPE.jpg", "title": "Pok\u00e9mon 3: The Movie - Spell of the Unown", "overview": "When Molly Hale's sadness of her father's disappearance get to her, she unknowingly uses the Unown to create her own dream world along with Entei, who she believes to be her father. When Entei kidnaps Ash's mom, Ash along with Misty & Brock invade the mansion looking for his mom and trying to stop the mysteries of Molly's Dream World and Entei!", "release_date": "2000-07-08", "popularity": 10.551, "original_title": "\u5287\u5834\u7248\u30dd\u30b1\u30c3\u30c8\u30e2\u30f3\u30b9\u30bf\u30fc \u7d50\u6676\u5854\u306e\u5e1d\u738b ENTEI", "backdrop_path": "/dLGQo5Xq6H18vPx00Czot8VHi3K.jpg", "vote_count": 289, "video": false, "adult": false, "vote_average": 6.2, "media_type": "movie", "genre_ids": [12, 14, 16, 28, 10751], "id": 10991, "original_language": "ja"}, {"poster_path": "/jrwTeoEHCmFEr0J9HENdPAR3dEq.jpg", "title": "Pok\u00e9mon: The Movie 2000", "overview": "Ash Ketchum must put his skill to the test when he attempts to save the world from destruction. The Greedy Pokemon collector Lawrence III throws the universe into chaos after disrupting the balance of nature by capturing one of the Pokemon birds that rule the elements of fire, lightning and ice. Will Ash have what it takes to save the world?", "release_date": "1999-07-17", "popularity": 11.078, "original_title": "\u5287\u5834\u7248\u30dd\u30b1\u30c3\u30c8\u30e2\u30f3\u30b9\u30bf\u30fc \u5e7b\u306e\u30dd\u30b1\u30e2\u30f3 \u30eb\u30ae\u30a2\u7206\u8a95", "backdrop_path": "/vVyY60DeLc0GJ3Xz5mylRlhL4Qi.jpg", "vote_count": 376, "video": false, "adult": false, "vote_average": 6.6, "media_type": "movie", "genre_ids": [12, 14, 16, 878, 10751], "id": 12599, "original_language": "ja"}, {"poster_path": "/lfZyKCRU7Xm21HNbjLQObZHvMnY.jpg", "title": "Pok\u00e9mon: Zoroark: Master of Illusions", "overview": "The thirteenth film overall for the long-running series and the fourth movie in the Diamond and Pearl story arc, it includes an upcoming creature from Pok\u00e9mon Black &amp; White, named Zoroark, as the main character (as well as its pre-evolved form, Zorua). In the movie, Celebi travels to the past to prevent a battle between Raikou, Entei, and Suicune after seeing the future battle in a vision. Meanwhile, Ash, Brock and Dawn make it to Crown City to attend the annual Pok\u00e9mon Baccer World Cup where they have an encounter with Zorua, who has lost his companion. The town is then attacked by the Legendary Pok\u00e9mon Raikou, Entei, and Suicune... who are revealed to actually be Zoroark. It is then up to Celebi to appear from the future and help the trio stop the rampaging Pok\u00e9mon.", "release_date": "2010-07-10", "popularity": 7.737, "original_title": "\u5287\u5834\u7248\u30dd\u30b1\u30c3\u30c8\u30e2\u30f3\u30b9\u30bf\u30fc \u30c0\u30a4\u30e4\u30e2\u30f3\u30c9&\u30d1\u30fc\u30eb \u5e7b\u5f71\u306e\u8987\u8005 \u30be\u30ed\u30a2\u30fc\u30af", "backdrop_path": "/9Q4wgSwcHpKgXv73g2I1ZW1uPga.jpg", "vote_count": 86, "video": false, "adult": false, "vote_average": 6.5, "media_type": "movie", "genre_ids": [12, 16, 10751], "id": 50087, "original_language": "ja"}, {"poster_path": "/4OevTwLmfTnNnbcKkrvr5ahMSDJ.jpg", "title": "Pok\u00e9mon Destiny Deoxys", "overview": "A comet bearing a deadly Pokemon creature crash-lands onto Earth, terrorising a nearby high-tech city, where Ash, Pikachu and friends are currently visiting...", "release_date": "2004-07-22", "popularity": 7.169, "original_title": "\u5287\u5834\u7248\u30dd\u30b1\u30c3\u30c8\u30e2\u30f3\u30b9\u30bf\u30fc \u30a2\u30c9\u30d0\u30f3\u30b9\u30b8\u30a7\u30cd\u30ec\u30fc\u30b7\u30e7\u30f3 \u88c2\u7a7a\u306e\u8a2a\u554f\u8005 \u30c7\u30aa\u30ad\u30b7\u30b9", "backdrop_path": "/iLaeLzMK2tWKiaHLGtOp8fd1To5.jpg", "vote_count": 110, "video": false, "adult": false, "vote_average": 6.2, "media_type": "movie", "genre_ids": [12, 16, 10751, 14], "id": 34065, "original_language": "ja"}, {"poster_path": "/bqL0PVHbQ8Jmw3Njcl38kW0CoeM.jpg", "title": "Pok\u00e9mon 4Ever: Celebi - Voice of the Forest", "overview": "40 years ago, a Celebi was being attacked by a Pokemon Hunter. Luckily, a young boy named Sammy saved Celebi. Using its Time Traveling power, Celebi transported himself and Sammy 40 years into the future. There, Ash, Misty, and Brock assist Sammy to the healing lake in the forest so they can heal the wounded Celebi. Unfortunately an evil Team Rocket member, Viscious a.k.a. \"The Iron Masked Marauder\", tries to capture Celebi using his technology. As Ash and Co. try to get away from Viscious, they also run into Jessie, James, and Meowth, who also want to capture Celebi. Soon it becomes a race against time to get Celebi and Sammy back to the forest before Celebi is caught and is used to destroy the forest and themselves.", "release_date": "2001-07-06", "popularity": 9.028, "original_title": "\u5287\u5834\u7248\u30dd\u30b1\u30c3\u30c8\u30e2\u30f3\u30b9\u30bf\u30fc \u30bb\u30ec\u30d3\u30a3 \u6642\u3092\u8d85\u3048\u305f\u906d\u9047", "backdrop_path": "/sUAkLYDCkitizIhKg035m6KmrnE.jpg", "vote_count": 170, "video": false, "adult": false, "vote_average": 6.1, "media_type": "movie", "genre_ids": [12, 14, 16, 878, 10751], "id": 12600, "original_language": "ja"}, {"poster_path": "/eakBFzG1dZn0uouBgv6kYtPXLkT.jpg", "title": "Pok\u00e9mon the Movie: The Power of Us", "overview": "Every year the citizens of Fura City celebrate a Wind Festival. Where people live together with the wind. Long Ago, on the final day of the festival the Legendary Pokemon Lugia and bestow the blessings of the wind upon the people. This Film Focuses on Everyone's Story. from Lisa, a high school girl who is just starting out as a Pokemon trainer, to Karachi, a guy who can't stop lying to Torito, a researcher who lacks confidence in himself, to Hisui, an old lady who hates touching Pokemon, and Rarugo, a mysterious young girl who watches over the forest by herself.", "release_date": "2018-07-13", "popularity": 8.396, "original_title": "\u5287\u5834\u7248\u30dd\u30b1\u30c3\u30c8\u30e2\u30f3\u30b9\u30bf\u30fc \u307f\u3093\u306a\u306e\u7269\u8a9e", "backdrop_path": "/b1EKIjZWYAoC3WUk14012DX46Cb.jpg", "vote_count": 33, "video": false, "adult": false, "vote_average": 6.5, "media_type": "movie", "genre_ids": [10751, 14, 16, 12], "id": 494407, "original_language": "ja"}, {"poster_path": "/t8ZIdOOUyhaZ2oqm3QVt1AWaMaD.jpg", "title": "Pok\u00e9mon the Movie White: Victini and Zekrom", "overview": "The Kingdom of the People of the Vale once ruled over the land, but now all that remains is the Sword of the Vale. in the city of Eindoak. Ash, Iris, and Cilan arrive in Eindoak during a harvest festival's Pok\u00e9mon Tournament and meet the legendary Pok\u00e9mon Victini who wishes to share its powers of victory to someone. Elsewhere in the city, a descendant of the People of the Vale named Damon has arrived who seeks to revive the kingdom's power with the Sword of the Vale, bringing them back into power over the land, and Ash and his friends must stop him before he destroys the land along with Victini.", "release_date": "2011-07-16", "popularity": 6.226, "original_title": "\u5287\u5834\u7248\u30dd\u30b1\u30c3\u30c8\u30e2\u30f3\u30b9\u30bf\u30fc \u30d9\u30b9\u30c8\u30a6\u30a4\u30c3\u30b7\u30e5 \u30d3\u30af\u30c6\u30a3\u30cb\u3068\u767d\u304d\u82f1\u96c4 \u30ec\u30b7\u30e9\u30e0", "backdrop_path": "/qo7XfN4necqEAs5PgYgmLj3WbR2.jpg", "vote_count": 67, "video": false, "adult": false, "vote_average": 6.3, "media_type": "movie", "genre_ids": [12, 16, 10751], "id": 88557, "original_language": "ja"}, {"poster_path": "/2EEMtGPbOMlsIwX3dqkP3TnxyFU.jpg", "title": "Pok\u00e9mon: Lucario and the Mystery of Mew", "overview": "In the legendary past, before Pok\u00e9 Balls were made; an aura-guiding hero Pok\u00e9mon named Lucario sensed two groups of armies about to clash, and a threat of a massive war in front of Cameron Palace in Kanto that would leave no survivors. He transferred this message to his master, the legendary hero Sir Aaron, while he was being attacked by a violent group of Houndoom. During the battle, his sense of sight was lost and he was rendered unable to see. He used the detection of his Aura, and so with the offensive Aura Sphere, he eliminated them. Though by the threat, the queen of Cameroon, Lady Rin was resolute to die with her civilians, and so Sir Aaron made a choice.", "release_date": "2005-07-16", "popularity": 8.502, "original_title": "\u5287\u5834\u7248\u30dd\u30b1\u30c3\u30c8\u30e2\u30f3\u30b9\u30bf\u30fc \u30a2\u30c9\u30d0\u30f3\u30b9\u30b8\u30a7\u30cd\u30ec\u30fc\u30b7\u30e7\u30f3 \u30df\u30e5\u30a6\u3068\u6ce2\u5c0e\u306e\u52c7\u8005 \u30eb\u30ab\u30ea\u30aa", "backdrop_path": "/rqNrZpTN2uVQO8ZWCxFQMzJIopJ.jpg", "vote_count": 109, "video": false, "adult": false, "vote_average": 6.7, "media_type": "movie", "genre_ids": [12, 16, 14], "id": 34067, "original_language": "ja"}, {"poster_path": "/y5DFVX0QTZoVkPB3RFeudufW5fM.jpg", "title": "Pok\u00e9mon the Movie: Hoopa and the Clash of Ages", "overview": "Ash, Pikachu, and their friends come to a desert city by the sea. Here they meet the Mythical Pok\u00e9mon Hoopa, which has the ability to summon things\u2014including people and Pok\u00e9mon\u2014through its magic rings. After a scary incident, they learn of a story about a brave hero who stopped the rampage of a terrifying Pok\u00e9mon long ago. Now, the threat that has been bottled up for years is in danger of breaking loose again.", "release_date": "2015-07-18", "popularity": 9.146, "original_title": "\u30dd\u30b1\u30e2\u30f3\u30fb\u30b6\u30fb\u30e0\u30fc\u30d3\u30fcXY \u5149\u8f2a\u306e\u8d85\u9b54\u795e \u30d5\u30fc\u30d1", "backdrop_path": "/vuph8ylX8ZocVc9oVJdTCbVwI42.jpg", "vote_count": 87, "video": false, "adult": false, "vote_average": 6.1, "media_type": "movie", "genre_ids": [12, 16, 28], "id": 350499, "original_language": "ja"}, {"poster_path": "/b1U1pzF2pAvBfajSU2Hv9HI4zFa.jpg", "title": "Pok\u00e9mon: The Mastermind of Mirage Pok\u00e9mon", "overview": "Ash, Misty and Professor Oak are invited to the mansion of Dr. Yung, a Pok\u00e9mon scientist who has developed a machine to create Pok\u00e9mon. However, he is kidnapped by a mysterious stranger who wishes to use the system to produce Pok\u00e9mon with absolutely no weaknesses, and is enraged by the sudden presence of Mew", "release_date": "2006-04-29", "popularity": 3.115, "original_title": "\u6226\u6144\u306e\u30df\u30e9\u30fc\u30b8\u30e5\u30dd\u30b1\u30e2\u30f3", "backdrop_path": null, "vote_count": 21, "video": false, "adult": false, "vote_average": 6.9, "media_type": "movie", "genre_ids": [16, 28, 12], "id": 137773, "original_language": "ja"}, {"poster_path": "/q2gljLyvupCHhg8f6oVmVtuFvWC.jpg", "title": "Pok\u00e9mon Ranger and the Temple of the Sea", "overview": "On their way through the Battle Frontier, Ash and friends meet up with a Pok\u00e9mon Ranger who's mission is to deliever the egg of Manaphy to a temple on the ocean's floor. However, a greedy pirate wants the power of Manaphy to himself.", "release_date": "2006-07-15", "popularity": 8.421, "original_title": "\u5287\u5834\u7248\u30dd\u30b1\u30c3\u30c8\u30e2\u30f3\u30b9\u30bf\u30fc \u30a2\u30c9\u30d0\u30f3\u30b9\u30b8\u30a7\u30cd\u30ec\u30fc\u30b7\u30e7\u30f3 \u30dd\u30b1\u30e2\u30f3\u30ec\u30f3\u30b8\u30e3\u30fc\u3068\u84bc\u6d77\u306e\u738b\u5b50 \u30de\u30ca\u30d5\u30a3", "backdrop_path": "/d4MsjJ3osIJps82anZFZdOkxuPz.jpg", "vote_count": 73, "video": false, "adult": false, "vote_average": 6, "media_type": "movie", "genre_ids": [16, 10751], "id": 16808, "original_language": "ja"}]}