{"total_results": 417702, "total_pages": 20886, "page": 4, "results": [{"poster_path": "/uxzzxijgPIY7slzFvMotPv8wjKA.jpg", "title": "Black Panther", "overview": "King T'Challa returns home from America to the reclusive, technologically advanced African nation of Wakanda to serve as his country's new leader. However, T'Challa soon finds that he is challenged for the throne by factions within his own country as well as without. Using powers reserved to Wakandan kings, T'Challa assumes the Black Panther mantel to join with girlfriend Nakia, the queen-mother, his princess-kid sister, members of the Dora Milaje (the Wakandan 'special forces') and an American secret agent, to prevent Wakanda from being dragged into a world war.", "release_date": "2018-02-13", "popularity": 47.814, "original_title": "Black Panther", "backdrop_path": "/6ELJEzQJ3Y45HczvreC3dg0GV5R.jpg", "vote_count": 12200, "video": false, "adult": false, "vote_average": 7.4, "genre_ids": [28, 12, 14, 878], "id": 284054, "original_language": "en"}, {"poster_path": "/lHu1wtNaczFPGFDTrjCSzeLPTKN.jpg", "title": "Bohemian Rhapsody", "overview": "Singer Freddie Mercury, guitarist Brian May, drummer Roger Taylor and bass guitarist John Deacon take the music world by storm when they form the rock 'n' roll band Queen in 1970. Hit songs become instant classics. When Mercury's increasingly wild lifestyle starts to spiral out of control, Queen soon faces its greatest challenge yet \u2013 finding a way to keep the band together amid the success and excess.", "release_date": "2018-10-24", "popularity": 47.655, "original_title": "Bohemian Rhapsody", "backdrop_path": "/93xA62uLd5CwMOAs37eQ7vPc1iV.jpg", "vote_count": 7400, "video": false, "adult": false, "vote_average": 8.1, "genre_ids": [18, 10402], "id": 424694, "original_language": "en"}, {"poster_path": "/dCtFvscYcXQKTNvyyaQr2g2UacJ.jpg", "title": "Harry Potter and the Philosopher's Stone", "overview": "Harry Potter has lived under the stairs at his aunt and uncle's house his whole life. But on his 11th birthday, he learns he's a powerful wizard -- with a place waiting for him at the Hogwarts School of Witchcraft and Wizardry. As he learns to harness his newfound powers with the help of the school's kindly headmaster, Harry uncovers the truth about his parents' deaths -- and about the villain who's to blame.", "release_date": "2001-11-16", "popularity": 47.136, "original_title": "Harry Potter and the Philosopher's Stone", "backdrop_path": "/hziiv14OpD73u9gAak4XDDfBKa2.jpg", "vote_count": 13798, "video": false, "adult": false, "vote_average": 7.8, "genre_ids": [12, 14, 10751], "id": 671, "original_language": "en"}, {"poster_path": "/uTVGku4LibMGyKgQvjBtv3OYfAX.jpg", "title": "Mary Poppins Returns", "overview": "In Depression-era London, a now-grown Jane and Michael Banks, along with Michael's three children, are visited by the enigmatic Mary Poppins following a personal loss. Through her unique magical skills, and with the aid of her friend Jack, she helps the family rediscover the joy and wonder missing in their lives.", "release_date": "2018-12-13", "popularity": 47.108, "original_title": "Mary Poppins Returns", "backdrop_path": "/cwiJQXezWz876K3jS57Sq56RYCZ.jpg", "vote_count": 1401, "video": false, "adult": false, "vote_average": 6.6, "genre_ids": [14, 10751, 35], "id": 400650, "original_language": "en"}, {"poster_path": "/30IiwvIRqPGjUV0bxJkZfnSiCL.jpg", "title": "What Men Want", "overview": "Magically able to hear what men are thinking, a sports agent uses her newfound ability to turn the tables on her overbearing male colleagues.", "release_date": "2019-02-08", "popularity": 47.079, "original_title": "What Men Want", "backdrop_path": "/umecegsPpKr2ZXA62Da9CQBVoIO.jpg", "vote_count": 299, "video": false, "adult": false, "vote_average": 5.8, "genre_ids": [35, 14, 10749], "id": 487297, "original_language": "en"}, {"poster_path": "/xqR4ABkFTFYe8NDJi3knwWX7zfn.jpg", "title": "Re: Zero kara Hajimeru Isekai Seikatsu - Memory Snow", "overview": "Subaru and friends finally get a moment of peace, and Subaru goes on a certain secret mission that he must not let anyone find out about! However, even though Subaru is wearing a disguise, Petra and other children of the village immediately figure out who he is. Now that his mission was exposed within five seconds of it starting, what will happen with Subaru's \"date course\" with Emilia?", "release_date": "2018-10-06", "popularity": 46.608, "original_title": "Re:\u30bc\u30ed\u304b\u3089\u59cb\u3081\u308b\u7570\u4e16\u754c\u751f\u6d3b Memory Snow", "backdrop_path": "/4wcj0N2D1Y70ADVjNRsqfQhQEGN.jpg", "vote_count": 8, "video": false, "adult": false, "vote_average": 5.1, "genre_ids": [16, 12], "id": 532321, "original_language": "ja"}, {"poster_path": "/5JU9ytZJyR3zmClGmVm9q4Geqbd.jpg", "title": "Terminator Genisys", "overview": "The year is 2029. John Connor, leader of the resistance continues the war against the machines. At the Los Angeles offensive, John's fears of the unknown future begin to emerge when TECOM spies reveal a new plot by SkyNet that will attack him from both fronts; past and future, and will ultimately change warfare forever.", "release_date": "2015-06-23", "popularity": 46.273, "original_title": "Terminator Genisys", "backdrop_path": "/bIlYH4l2AyYvEysmS2AOfjO7Dn8.jpg", "vote_count": 5279, "video": false, "adult": false, "vote_average": 5.9, "genre_ids": [878, 28, 53, 12], "id": 87101, "original_language": "en"}, {"poster_path": "/yyejodyk3lWncVjVhhrEkPctY9o.jpg", "title": "The Prodigy", "overview": "A mother concerned about her young son's disturbing behavior thinks something supernatural may be affecting him.", "release_date": "2019-02-06", "popularity": 45.905, "original_title": "The Prodigy", "backdrop_path": "/oxTgovZ3TQ8LLxifUm16ROMULP5.jpg", "vote_count": 209, "video": false, "adult": false, "vote_average": 5.8, "genre_ids": [27, 53], "id": 532671, "original_language": "en"}, {"poster_path": "/btTdmkgIvOi0FFip1sPuZI2oQG6.jpg", "title": "Star Wars", "overview": "Princess Leia is captured and held hostage by the evil Imperial forces in their effort to take over the galactic Empire. Venturesome Luke Skywalker and dashing captain Han Solo team together with the loveable robot duo R2-D2 and C-3PO to rescue the beautiful princess and restore peace and justice in the Empire.", "release_date": "1977-05-25", "popularity": 45.51, "original_title": "Star Wars", "backdrop_path": "/4iJfYYoQzZcONB9hNzg0J0wWyPH.jpg", "vote_count": 11381, "video": false, "adult": false, "vote_average": 8.2, "genre_ids": [12, 28, 878], "id": 11, "original_language": "en"}, {"poster_path": "/2uNW4WbgBXL25BAbXGLnLqX71Sw.jpg", "title": "Venom", "overview": "Investigative journalist Eddie Brock attempts a comeback following a scandal, but accidentally becomes the host of Venom, a violent, super powerful alien symbiote. Soon, he must rely on his newfound powers to protect the world from a shadowy organization looking for a symbiote of their own.", "release_date": "2018-09-28", "popularity": 45.344, "original_title": "Venom", "backdrop_path": "/VuukZLgaCrho2Ar8Scl9HtV3yD.jpg", "vote_count": 6059, "video": false, "adult": false, "vote_average": 6.6, "genre_ids": [878, 28], "id": 335983, "original_language": "en"}, {"poster_path": "/rWxkur51srfVnMn2QOFjE7mbq6h.jpg", "title": "The Happytime Murders", "overview": "In a world where human beings and puppets live together, when the members of the cast of a children's television show aired during the 1990s begin to get murdered one by one, puppet Phil Philips, a former LAPD detective who fell in disgrace and turned into a private eye, takes on the case at the request of his old boss in order to assist detective Edwards, who was his partner in the past.", "release_date": "2018-08-22", "popularity": 45.231, "original_title": "The Happytime Murders", "backdrop_path": "/gqemVzi13T4oB95EBufIxqafSCl.jpg", "vote_count": 371, "video": false, "adult": false, "vote_average": 5.7, "genre_ids": [28, 35, 80], "id": 412988, "original_language": "en"}, {"poster_path": "/9zDwvsISU8bR15R2yN3kh1lfqve.jpg", "title": "Thor", "overview": "Against his father Odin's will, The Mighty Thor - a powerful but arrogant warrior god - recklessly reignites an ancient war. Thor is cast down to Earth and forced to live among humans as punishment. Once here, Thor learns what it takes to be a true hero when the most dangerous villain of his world sends the darkest forces of Asgard to invade Earth.", "release_date": "2011-04-21", "popularity": 44.869, "original_title": "Thor", "backdrop_path": "/LvmmDZxkTDqp0DX7mUo621ahdX.jpg", "vote_count": 12636, "video": false, "adult": false, "vote_average": 6.7, "genre_ids": [12, 14, 28], "id": 10195, "original_language": "en"}, {"poster_path": "/to0spRl1CMDvyUbOnbb4fTk3VAd.jpg", "title": "Deadpool 2", "overview": "Wisecracking mercenary Deadpool battles the evil and powerful Cable and other bad guys to save a boy's life.", "release_date": "2018-05-10", "popularity": 44.65, "original_title": "Deadpool 2", "backdrop_path": "/3P52oz9HPQWxcwHOwxtyrVV1LKi.jpg", "vote_count": 8621, "video": false, "adult": false, "vote_average": 7.5, "genre_ids": [28, 35, 12], "id": 383498, "original_language": "en"}, {"poster_path": "/lcMp3AONdNhjYE9MmTtMMTOiRDP.jpg", "title": "Twilight", "overview": "When Bella Swan moves to a small town in the Pacific Northwest to live with her father, she meets the reclusive Edward Cullen, a mysterious classmate who reveals himself to be a 108-year-old vampire. Despite Edward's repeated cautions, Bella can't help but fall in love with him, a fatal move that endangers her own life when a coven of bloodsuckers try to challenge the Cullen clan.", "release_date": "2008-11-20", "popularity": 44.441, "original_title": "Twilight", "backdrop_path": "/nEdBHjvRkKwEPD1Ps5A3rRiiLVN.jpg", "vote_count": 7277, "video": false, "adult": false, "vote_average": 6, "genre_ids": [14, 18, 10749], "id": 8966, "original_language": "en"}, {"poster_path": "/eivQmS3wqzqnQWILHLc4FsEfcXP.jpg", "title": "Ant-Man and the Wasp", "overview": "Just when his time under house arrest is about to end, Scott Lang once again puts his freedom at risk to help Hope van Dyne and Dr. Hank Pym dive into the quantum realm and try to accomplish, against time and any chance of success, a very dangerous rescue mission.", "release_date": "2018-07-04", "popularity": 43.548, "original_title": "Ant-Man and the Wasp", "backdrop_path": "/6P3c80EOm7BodndGBUAJHHsHKrp.jpg", "vote_count": 6158, "video": false, "adult": false, "vote_average": 7, "genre_ids": [28, 12, 878, 35, 10751], "id": 363088, "original_language": "en"}, {"poster_path": "/iteUvQKCW0EqNQrIVzZGJntYq9s.jpg", "title": "Mortal Engines", "overview": "Many thousands of years in the future, Earth\u2019s cities roam the globe on huge wheels, devouring each other in a struggle for ever diminishing resources. On one of these massive traction cities, the old London, Tom Natsworthy has an unexpected encounter with a mysterious young woman from the wastelands who will change the course of his life forever.", "release_date": "2018-11-27", "popularity": 43.284, "original_title": "Mortal Engines", "backdrop_path": "/jnOuttTfG9KKpmOZtprC4pA1AlZ.jpg", "vote_count": 1672, "video": false, "adult": false, "vote_average": 6, "genre_ids": [12, 14], "id": 428078, "original_language": "en"}, {"poster_path": "/jdXmMoREwmfZWxtqGyk5Zv0UB6r.jpg", "title": "Iron Man", "overview": "After being held captive in an Afghan cave, billionaire engineer Tony Stark creates a unique weaponized suit of armor to fight evil.", "release_date": "2008-04-30", "popularity": 42.932, "original_title": "Iron Man", "backdrop_path": "/ZQixhAZx6fH1VNafFXsqa1B8QI.jpg", "vote_count": 15583, "video": false, "adult": false, "vote_average": 7.5, "genre_ids": [28, 878, 12], "id": 1726, "original_language": "en"}, {"poster_path": "/56zTpe2xvaA4alU51sRWPoKPYZy.jpg", "title": "The Lord of the Rings: The Fellowship of the Ring", "overview": "Young hobbit Frodo Baggins, after inheriting a mysterious ring from his uncle Bilbo, must leave his home in order to keep it from falling into the hands of its evil creator. Along the way, a fellowship is formed to protect the ringbearer and make sure that the ring arrives at its final destination: Mt. Doom, the only place where it can be destroyed.", "release_date": "2001-12-18", "popularity": 42.866, "original_title": "The Lord of the Rings: The Fellowship of the Ring", "backdrop_path": "/pIUvQ9Ed35wlWhY2oU6OmwEsmzG.jpg", "vote_count": 14362, "video": false, "adult": false, "vote_average": 8.3, "genre_ids": [12, 14, 28], "id": 120, "original_language": "en"}, {"poster_path": "/y4MBh0EjBlMuOzv9axM4qJlmhzz.jpg", "title": "Guardians of the Galaxy Vol. 2", "overview": "The Guardians must fight to keep their newfound family together as they unravel the mysteries of Peter Quill's true parentage.", "release_date": "2017-04-19", "popularity": 42.844, "original_title": "Guardians of the Galaxy Vol. 2", "backdrop_path": "/aJn9XeesqsrSLKcHfHP4u5985hn.jpg", "vote_count": 12379, "video": false, "adult": false, "vote_average": 7.7, "genre_ids": [28, 12, 35, 878], "id": 283995, "original_language": "en"}, {"poster_path": "/f4FF18ia7yTvHf2izNrHqBmgH8U.jpg", "title": "Rocketman", "overview": "The story of Elton John's life, from his years as a prodigy at the Royal Academy of Music through his influential and enduring musical partnership with Bernie Taupin.", "release_date": "2019-05-22", "popularity": 42.554, "original_title": "Rocketman", "backdrop_path": "/oAr5bgf49vxga9etWoQpAeRMvhp.jpg", "vote_count": 16, "video": false, "adult": false, "vote_average": 7.6, "genre_ids": [10402, 18], "id": 504608, "original_language": "en"}]}