{"total_results": 20000, "total_pages": 1000, "page": 1, "results": [{"origin_country": ["JP"], "poster_path": "/iE3s0lG5QVdEHOEZnoAxjmMtvne.jpg", "name": "One-Punch Man", "overview": "Saitama is a hero who only became a hero for fun. After three years of \u201cspecial\u201d training, though, he\u2019s become so strong that he\u2019s practically invincible. In fact, he\u2019s too strong\u2014even his mightiest opponents are taken out with a single punch, and it turns out that being devastatingly powerful is actually kind of a bore. With his passion for being a hero lost along with his hair, yet still faced with new enemies every day, how much longer can he keep it going?", "popularity": 375.965, "original_name": "\u30ef\u30f3\u30d1\u30f3\u30de\u30f3", "id": 63926, "vote_average": 8.1, "vote_count": 365, "first_air_date": "2015-10-04", "original_language": "ja", "backdrop_path": "/s0w8JbuNNxL1YgaHeDWih12C3jG.jpg", "genre_ids": [16, 35, 10759]}, {"origin_country": ["US"], "poster_path": "/fki3kBlwJzFp8QohL43g9ReV455.jpg", "name": "The Flash", "overview": "After a particle accelerator causes a freak storm, CSI Investigator Barry Allen is struck by lightning and falls into a coma. Months later he awakens with the power of super speed, granting him the ability to move through Central City like an unseen guardian angel. Though initially excited by his newfound powers, Barry is shocked to discover he is not the only \"meta-human\" who was created in the wake of the accelerator explosion -- and not everyone is using their new powers for good. Barry partners with S.T.A.R. Labs and dedicates his life to protect the innocent. For now, only a few close friends and associates know that Barry is literally the fastest man alive, but it won't be long before the world learns what Barry Allen has become...The Flash.", "popularity": 332.165, "original_name": "The Flash", "id": 60735, "vote_average": 6.6, "vote_count": 2686, "first_air_date": "2014-10-07", "original_language": "en", "backdrop_path": "/jC1KqsFx8ZyqJyQa2Ohi7xgL7XC.jpg", "genre_ids": [18, 10765]}, {"origin_country": ["US"], "poster_path": "/u3bZgnGQ9T01sWNhyveQz0wH0Hl.jpg", "name": "Game of Thrones", "overview": "Seven noble families fight for control of the mythical land of Westeros. Friction between the houses leads to full-scale war. All while a very ancient evil awakens in the farthest north. Amidst the war, a neglected military order of misfits, the Night's Watch, is all that stands between the realms of men and icy horrors beyond.", "popularity": 287.82, "original_name": "Game of Thrones", "backdrop_path": "/qsD5OHqW7DSnaQ2afwz8Ptht1Xb.jpg", "first_air_date": "2011-04-17", "vote_count": 5986, "vote_average": 8.1, "original_language": "en", "id": 1399, "genre_ids": [10765, 18, 10759]}, {"origin_country": ["US"], "poster_path": "/mo0FP1GxOFZT4UDde7RFDz5APXF.jpg", "name": "Arrow", "overview": "Spoiled billionaire playboy Oliver Queen is missing and presumed dead when his yacht is lost at sea. He returns five years later a changed man, determined to clean up the city as a hooded vigilante armed with a bow.", "popularity": 271.262, "original_name": "Arrow", "id": 1412, "vote_average": 5.8, "vote_count": 2460, "first_air_date": "2012-10-10", "original_language": "en", "backdrop_path": "/dKxkwAJfGuznW8Hu0mhaDJtna0n.jpg", "genre_ids": [80, 18, 9648, 10759]}, {"origin_country": ["US"], "poster_path": "/hlLXt2tOPT6RRnjiUmoxyG1LTFi.jpg", "name": "Chernobyl", "overview": "A dramatization of the true story of one of the worst man-made catastrophes in history, the catastrophic nuclear accident at Chernobyl. A tale of the brave men and women who sacrificed to save Europe from unimaginable disaster.", "popularity": 266.651, "original_name": "Chernobyl", "id": 87108, "vote_average": 8, "vote_count": 99, "first_air_date": "2019-05-06", "original_language": "en", "backdrop_path": "/900tHlUYUkp7Ol04XFSoAaEIXcT.jpg", "genre_ids": [18]}, {"origin_country": ["US"], "poster_path": "/eqgIOObafPJitt8JNh1LuO2fvqu.jpg", "name": "Grey's Anatomy", "overview": "Follows the personal and professional lives of a group of doctors at Seattle\u2019s Grey Sloan Memorial Hospital.", "popularity": 207.422, "original_name": "Grey's Anatomy", "id": 1416, "vote_average": 6.2, "vote_count": 946, "first_air_date": "2005-03-27", "original_language": "en", "backdrop_path": "/y6JABtgWMVYPx84Rvy7tROU5aNH.jpg", "genre_ids": [18]}, {"origin_country": ["US"], "poster_path": "/1sBx2Ew4WFsa1YY32vlHt079O03.jpg", "name": "Lucifer", "overview": "Bored and unhappy as the Lord of Hell, Lucifer Morningstar abandoned his throne and retired to Los Angeles, where he has teamed up with LAPD detective Chloe Decker to take down criminals.\u00a0But the longer he's away from the underworld, the greater the threat that the worst of humanity could escape.", "popularity": 174.673, "original_name": "Lucifer", "id": 63174, "vote_average": 7.4, "vote_count": 961, "first_air_date": "2016-01-25", "original_language": "en", "backdrop_path": "/6kZCuvbirx6ibJfaWqwV2p90yPI.jpg", "genre_ids": [80, 10765]}, {"origin_country": ["US"], "poster_path": "/xbWqfPKBhqOZQEGq7HdDkX0Bjib.jpg", "name": "Blood & Treasure", "overview": "An antiquities expert teams up with an art thief to catch a terrorist who funds his attacks using stolen artifacts.", "popularity": 167.988, "original_name": "Blood & Treasure", "id": 88118, "vote_average": 5.2, "vote_count": 5, "first_air_date": "2019-05-21", "original_language": "en", "backdrop_path": "/uov6mcUkg3GuqpGopSqWbhAEWLF.jpg", "genre_ids": [18, 10759]}, {"origin_country": [], "poster_path": "/vdRt0W5sZDLlshT2o3y7c7gZYJA.jpg", "name": "Wise Man\u2019s Grandchild", "overview": "A young man who had surely died in an accident, was reborn in another world as a baby! After that, he was picked up by the patriot hero \"Sage\" Merlin Wolford and was given the name Shin. He was raised as a grandson by Merlin and soaked up Merlin's teachings, earning him some shocking powers; however, when he became 15, his grandfather Merlin said, \"I forgot to teach him common sense!\"\n\nAn \"abnormal\" boy's unconventional other world fantasy life starts here!", "popularity": 166.846, "original_name": "\u8ce2\u8005\u306e\u5b6b", "id": 85844, "vote_average": 6.5, "vote_count": 20, "first_air_date": "2019-04-10", "original_language": "ja", "backdrop_path": "/3sExYAo2rNhKgrHx8S37WMTJHZv.jpg", "genre_ids": [16, 35, 10759, 10765]}, {"origin_country": ["JP"], "poster_path": "/3RUtEMburuZkk1fbD1nS3bYrJPh.jpg", "name": "Bleach", "overview": "For as long as he can remember, Ichigo Kurosaki has been able to see ghosts. But when he meets Rukia, a Soul Reaper who battles evil spirits known as Hollows, he finds his life is changed forever. Now, with a newfound wealth of spiritual energy, Ichigo discovers his true calling: to protect the living and the dead from evil.", "popularity": 161.871, "original_name": "\u30d6\u30ea\u30fc\u30c1", "id": 30984, "vote_average": 7.7, "vote_count": 144, "first_air_date": "2004-10-05", "original_language": "ja", "backdrop_path": "/rL5f718Nlnl10N4LnXFVxRO2XQz.jpg", "genre_ids": [16, 10759, 10765]}, {"origin_country": ["US"], "poster_path": "/cXiETfFK1BTLest5fhTLfDLRdL6.jpg", "name": "Marvel's Agents of S.H.I.E.L.D.", "overview": "Agent Phil Coulson of S.H.I.E.L.D. (Strategic Homeland Intervention, Enforcement and Logistics Division) puts together a team of agents to investigate the new, the strange and the unknown around the globe, protecting the ordinary from the extraordinary.", "popularity": 156.358, "original_name": "Marvel's Agents of S.H.I.E.L.D.", "id": 1403, "vote_average": 6.7, "vote_count": 1278, "first_air_date": "2013-09-24", "original_language": "en", "backdrop_path": "/qtr5i6hOm6oVzTYl3jOQAYP3oc7.jpg", "genre_ids": [18, 10759, 10765]}, {"origin_country": ["JP"], "poster_path": "/3wx3EAMtqnbSLhGG8NrqXriCUIQ.jpg", "name": "Dragon Ball", "overview": "Long ago in the mountains, a fighting master known as Gohan discovered a strange boy whom he named Goku. Gohan raised him and trained Goku in martial arts until he died. The young and very strong boy was on his own, but easily managed. Then one day, Goku met a teenage girl named Bulma, whose search for the dragon balls brought her to Goku's home. Together, they set off to find all seven dragon balls in an adventure that would change Goku's life forever. See how Goku met his life long friends Bulma, Yamcha, Krillin, Master Roshi and more. And see his adventures as a boy, all leading up to  Dragonball Z and later  Dragonball GT.", "popularity": 149.79, "original_name": "\u30c9\u30e9\u30b4\u30f3\u30dc\u30fc\u30eb", "id": 12609, "vote_average": 7.2, "vote_count": 299, "first_air_date": "1986-02-26", "original_language": "ja", "backdrop_path": "/iflq7ZJfso6WC7gk9l1tD3unWK.jpg", "genre_ids": [16, 35, 10759, 10765]}, {"origin_country": ["US"], "poster_path": "/wBzNjurA8ijJPF21Ggs9nbviIzi.jpg", "name": "The 100", "overview": "100 years in the future, when the Earth has been abandoned due to radioactivity, the last surviving humans live on an ark orbiting the planet \u2014 but the ark won't last forever. So the repressive regime picks 100 expendable juvenile delinquents to send down to Earth to see if the planet is still habitable.", "popularity": 144.605, "original_name": "The 100", "id": 48866, "vote_average": 6.5, "vote_count": 1527, "first_air_date": "2014-03-19", "original_language": "en", "backdrop_path": "/qYTIuJJ7fIehicAt3bl0vW70Sq6.jpg", "genre_ids": [18, 10765]}, {"origin_country": ["US"], "poster_path": "/gBGUL1UTUNmdRQT8gA1LUV4yg39.jpg", "name": "Family Guy", "overview": "Sick, twisted, politically incorrect and Freakin' Sweet animated series featuring the adventures of the dysfunctional Griffin family. Bumbling Peter and long-suffering Lois have three kids. Stewie (a brilliant but sadistic baby bent on killing his mother and taking over the world), Meg (the oldest, and is the most unpopular girl in town) and Chris (the middle kid, he's not very bright but has a passion for movies). The final member of the family is Brian - a talking dog and much more than a pet, he keeps Stewie in check whilst sipping Martinis and sorting through his own life issues.", "popularity": 141.446, "original_name": "Family Guy", "id": 1434, "vote_average": 6.5, "vote_count": 1531, "first_air_date": "1999-01-31", "original_language": "en", "backdrop_path": "/3OFrs1ets87VmRvG78Zg5eJTZeq.jpg", "genre_ids": [16, 35]}, {"origin_country": ["JP"], "poster_path": "/58GKcwFV3lpVOGzybeMrrNOjHpz.jpg", "name": "Fairy Tail", "overview": "Lucy is a 17-year-old girl, who wants to be a full-fledged mage. One day when visiting Harujion Town, she meets Natsu, a young man who gets sick easily by any type of transportation. But Natsu isn't just any ordinary kid, he's a member of one of the world's most infamous mage guilds: Fairy Tail.", "popularity": 141.011, "original_name": "\u30d5\u30a7\u30a2\u30ea\u30fc\u30c6\u30a4\u30eb", "id": 46261, "vote_average": 6.5, "vote_count": 164, "first_air_date": "2009-10-12", "original_language": "ja", "backdrop_path": "/m2lugAG39sO0yCcuxEAu4fY5u1o.jpg", "genre_ids": [16, 35, 10759, 10765]}, {"origin_country": ["US"], "poster_path": "/j6DC2Xe0SZS6xKS2d6LWL1EGwzX.jpg", "name": "Murder, She Wrote", "overview": "An unassuming mystery writer turned sleuth uses her professional insight to help solve real-life homicide cases.", "popularity": 139.943, "original_name": "Murder, She Wrote", "id": 484, "vote_average": 7.1, "vote_count": 76, "first_air_date": "1984-09-30", "original_language": "en", "backdrop_path": "/5M8bF0BwBk6RtJVrvpS9zj2bcxM.jpg", "genre_ids": [80, 18, 9648]}, {"origin_country": ["US"], "poster_path": "/yTZQkSsxUFJZJe67IenRM0AEklc.jpg", "name": "The Simpsons", "overview": "Set in Springfield, the average American town, the show focuses on the antics and everyday adventures of the Simpson family; Homer, Marge, Bart, Lisa and Maggie, as well as a virtual cast of thousands. Since the beginning, the series has been a pop culture icon, attracting hundreds of celebrities to guest star. The show has also made name for itself in its fearless satirical take on politics, media and American life in general.", "popularity": 138.278, "original_name": "The Simpsons", "id": 456, "vote_average": 7.1, "vote_count": 2011, "first_air_date": "1989-12-17", "original_language": "en", "backdrop_path": "/1pP0gg0iNGX06wSs19EQOvzfZIF.jpg", "genre_ids": [16, 35]}, {"origin_country": ["US"], "poster_path": "/gskv297rlbyzLaTU1XZf8UBbxp0.jpg", "name": "Riverdale", "overview": "Set in the present, the series offers a bold, subversive take on Archie, Betty, Veronica and their friends, exploring the surreality of small-town life, the darkness and weirdness bubbling beneath Riverdale\u2019s wholesome facade.", "popularity": 132.868, "original_name": "Riverdale", "id": 69050, "vote_average": 6.9, "vote_count": 541, "first_air_date": "2017-01-26", "original_language": "en", "backdrop_path": "/2IUpoKSP64r6rp2vBo0Fdk8a1UU.jpg", "genre_ids": [18, 9648]}, {"origin_country": ["JP"], "poster_path": "/zAYRe2bJxpWTVrwwmBc00VFkAf4.jpg", "name": "Naruto Shipp\u016bden", "overview": "Naruto Shippuuden is the continuation of the original animated TV series Naruto.The story revolves around an older and slightly more matured Uzumaki Naruto and his quest to save his friend Uchiha Sasuke from the grips of the snake-like Shinobi, Orochimaru. After 2 and a half years Naruto finally returns to his village of Konoha, and sets about putting his ambitions to work, though it will not be easy, as He has amassed a few (more dangerous) enemies, in the likes of the shinobi organization; Akatsuki.", "popularity": 132.283, "original_name": "\u30ca\u30eb\u30c8 \u75be\u98a8\u4f1d", "id": 31910, "vote_average": 7.5, "vote_count": 220, "first_air_date": "2007-02-15", "original_language": "ja", "backdrop_path": "/c14vjmndzL9tBdooGsMznMFrFLo.jpg", "genre_ids": [16, 35, 18]}, {"origin_country": ["US"], "poster_path": "/bgbQCW4fE9b6wSOSC6Fb4FfVzsW.jpg", "name": "The Blacklist", "overview": "Raymond \"Red\" Reddington, one of the FBI's most wanted fugitives, surrenders in person at FBI Headquarters in Washington, D.C. He claims that he and the FBI have the same interests: bringing down dangerous criminals and terrorists. In the last two decades, he's made a list of criminals and terrorists that matter the most but the FBI cannot find because it does not know they exist. Reddington calls this \"The Blacklist\". Reddington will co-operate, but insists that he will speak only to Elizabeth Keen, a rookie FBI profiler.", "popularity": 129.428, "original_name": "The Blacklist", "backdrop_path": "/fHwiAqIKragaCbNJo9Qs4lrccIN.jpg", "first_air_date": "2013-09-23", "vote_count": 989, "vote_average": 7, "original_language": "en", "id": 46952, "genre_ids": [18, 80, 9648]}]}