{"total_results": 7252, "total_pages": 363, "page": 1, "results": [{"poster_path": "/uC6TTUhPpQCmgldGyYveKRAu8JN.jpg", "title": "Dilwale Dulhania Le Jayenge", "overview": "Raj is a rich, carefree, happy-go-lucky second generation NRI. Simran is the daughter of Chaudhary Baldev Singh, who in spite of being an NRI is very strict about adherence to Indian values. Simran has left for India to be married to her childhood fianc\u00e9. Raj leaves for India with a mission at his hands, to claim his lady love under the noses of her whole family. Thus begins a saga.", "release_date": "1995-10-20", "popularity": 14.609, "original_title": "\u0926\u093f\u0932\u0935\u093e\u0932\u0947 \u0926\u0941\u0932\u094d\u0939\u0928\u093f\u092f\u093e \u0932\u0947 \u091c\u093e\u092f\u0947\u0902\u0917\u0947", "backdrop_path": "/nl79FQ8xWZkhL3rDr1v2RFFR6J0.jpg", "vote_count": 2057, "video": false, "adult": false, "vote_average": 9, "genre_ids": [35, 18, 10749], "id": 19404, "original_language": "hi"}, {"poster_path": "/9O7gLzmreU0nGkIB6K3BsJbzvNv.jpg", "title": "The Shawshank Redemption", "overview": "Framed in the 1940s for the double murder of his wife and her lover, upstanding banker Andy Dufresne begins a new life at the Shawshank prison, where he puts his accounting skills to work for an amoral warden. During his long stretch in prison, Dufresne comes to be admired by the other inmates -- including an older prisoner named Red -- for his integrity and unquenchable sense of hope.", "release_date": "1994-09-23", "popularity": 26.516, "original_title": "The Shawshank Redemption", "backdrop_path": "/j9XKiZrVeViAixVRzCta7h1VU9W.jpg", "vote_count": 13122, "video": false, "adult": false, "vote_average": 8.7, "genre_ids": [18, 80], "id": 278, "original_language": "en"}, {"poster_path": "/rPdtLWNsZmAtoZl9PK7S2wE3qiS.jpg", "title": "The Godfather", "overview": "Spanning the years 1945 to 1955, a chronicle of the fictional Italian-American Corleone crime family. When organized crime family patriarch, Vito Corleone barely survives an attempt on his life, his youngest son, Michael steps in to take care of the would-be killers, launching a campaign of bloody revenge.", "release_date": "1972-03-14", "popularity": 32.934, "original_title": "The Godfather", "backdrop_path": "/6xKCYgH16UuwEGAyroLU6p8HLIn.jpg", "vote_count": 9980, "video": false, "adult": false, "vote_average": 8.6, "genre_ids": [18, 80], "id": 238, "original_language": "en"}, {"poster_path": "/xq1Ugd62d23K2knRUx6xxuALTZB.jpg", "title": "Your Name.", "overview": "High schoolers Mitsuha and Taki are complete strangers living separate lives. But one night, they suddenly switch places. Mitsuha wakes up in Taki\u2019s body, and he in hers. This bizarre occurrence continues to happen randomly, and the two must adjust their lives around each other.", "release_date": "2016-08-26", "popularity": 25.115, "original_title": "\u541b\u306e\u540d\u306f\u3002", "backdrop_path": "/nvsdKYPKwf51EAgC0xLJMB9kUZM.jpg", "vote_count": 4108, "video": false, "adult": false, "vote_average": 8.6, "genre_ids": [10749, 16, 18], "id": 372058, "original_language": "ja"}, {"poster_path": "/yPisjyLweCl1tbgwgtzBCNCBle.jpg", "title": "Schindler's List", "overview": "The true story of how businessman Oskar Schindler saved over a thousand Jewish lives from the Nazis while they worked as slaves in his factory during World War II.", "release_date": "1993-12-15", "popularity": 30.279, "original_title": "Schindler's List", "backdrop_path": "/af98P1bc7lJsFjhHOVWXQgNNgSQ.jpg", "vote_count": 8009, "video": false, "adult": false, "vote_average": 8.5, "genre_ids": [18, 36, 10752], "id": 424, "original_language": "en"}, {"poster_path": "/bVq65huQ8vHDd1a4Z37QtuyEvpA.jpg", "title": "The Godfather: Part II", "overview": "In the continuing saga of the Corleone crime family, a young Vito Corleone grows up in Sicily and in 1910s New York. In the 1950s, Michael Corleone attempts to expand the family business into Las Vegas, Hollywood and Cuba.", "release_date": "1974-12-20", "popularity": 26.821, "original_title": "The Godfather: Part II", "backdrop_path": "/gLbBRyS7MBrmVUNce91Hmx9vzqI.jpg", "vote_count": 5835, "video": false, "adult": false, "vote_average": 8.5, "genre_ids": [18, 80], "id": 240, "original_language": "en"}, {"poster_path": "/oRvMaJOmapypFUcQqpgHMZA6qL9.jpg", "title": "Spirited Away", "overview": "A young girl, Chihiro, becomes trapped in a strange new world of spirits. When her parents undergo a mysterious transformation, she must call upon the courage she never knew she had to free her family.", "release_date": "2001-07-20", "popularity": 26.435, "original_title": "\u5343\u3068\u5343\u5c0b\u306e\u795e\u96a0\u3057", "backdrop_path": "/mnpRKVSXBX6jb56nabvmGKA0Wig.jpg", "vote_count": 7376, "video": false, "adult": false, "vote_average": 8.5, "genre_ids": [16, 10751, 14], "id": 129, "original_language": "ja"}, {"poster_path": "/or06FN3Dka5tukK1e9sl16pB3iy.jpg", "title": "Avengers: Endgame", "overview": "After the devastating events of Avengers: Infinity War, the universe is in ruins due to the efforts of the Mad Titan, Thanos. With the help of remaining allies, the Avengers must assemble once more in order to undo Thanos' actions and restore order to the universe once and for all, no matter what consequences may be in store.", "release_date": "2019-04-24", "popularity": 203.02, "original_title": "Avengers: Endgame", "backdrop_path": "/7RyHsO4yDXtBv1zUU3mTpHeQ0d5.jpg", "vote_count": 6270, "video": false, "adult": false, "vote_average": 8.5, "genre_ids": [12, 878, 28], "id": 299534, "original_language": "en"}, {"poster_path": "/sOHqdY1RnSn6kcfAHKu28jvTebE.jpg", "title": "The Green Mile", "overview": "A supernatural tale set on death row in a Southern prison, where gentle giant John Coffey possesses the mysterious power to heal people's ailments. When the cell block's head guard, Paul Edgecomb, recognizes Coffey's miraculous gift, he tries desperately to help stave off the condemned man's execution.", "release_date": "1999-12-10", "popularity": 20.757, "original_title": "The Green Mile", "backdrop_path": "/Rlt20sEbOQKPVjia7lUilFm49W.jpg", "vote_count": 8234, "video": false, "adult": false, "vote_average": 8.4, "genre_ids": [14, 18, 80], "id": 497, "original_language": "en"}, {"poster_path": "/f7DImXDebOs148U4uPjI61iDvaK.jpg", "title": "Life Is Beautiful", "overview": "A touching story of an Italian book seller of Jewish ancestry who lives in his own little fairy tale. His creative and happy life would come to an abrupt halt when his entire family is deported to a concentration camp during World War II. While locked up he tries to convince his son that the whole thing is just a game.", "release_date": "1997-12-20", "popularity": 15.166, "original_title": "La vita \u00e8 bella", "backdrop_path": "/bORe0eI72D874TMawOOFvqWS6Xe.jpg", "vote_count": 7225, "video": false, "adult": false, "vote_average": 8.4, "genre_ids": [35, 18], "id": 637, "original_language": "it"}, {"poster_path": "/dM2w364MScsjFf8pfMbaWUcWrR.jpg", "title": "Pulp Fiction", "overview": "A burger-loving hit man, his philosophical partner, a drug-addled gangster's moll and a washed-up boxer converge in this sprawling, comedic crime caper. Their adventures unfurl in three stories that ingeniously trip back and forth in time.", "release_date": "1994-09-10", "popularity": 28.012, "original_title": "Pulp Fiction", "backdrop_path": "/4cDFJr4HnXN5AdPw4AKrmLlMWdO.jpg", "vote_count": 15162, "video": false, "adult": false, "vote_average": 8.4, "genre_ids": [53, 80], "id": 680, "original_language": "en"}, {"poster_path": "/iiZZdoQBEYBv6id8su7ImL0oCbD.jpg", "title": "Spider-Man: Into the Spider-Verse", "overview": "Miles Morales is juggling his life between being a high school student and being a spider-man. When Wilson \"Kingpin\" Fisk uses a super collider, others from across the Spider-Verse are transported to this dimension.", "release_date": "2018-12-07", "popularity": 67.043, "original_title": "Spider-Man: Into the Spider-Verse", "backdrop_path": "/uUiId6cG32JSRI6RyBQSvQtLjz2.jpg", "vote_count": 3913, "video": false, "adult": false, "vote_average": 8.4, "genre_ids": [28, 12, 16, 878, 35], "id": 324857, "original_language": "en"}, {"poster_path": "/1hRoyzDtpgMU7Dz4JF22RANzQO7.jpg", "title": "The Dark Knight", "overview": "Batman raises the stakes in his war on crime. With the help of Lt. Jim Gordon and District Attorney Harvey Dent, Batman sets out to dismantle the remaining criminal organizations that plague the streets. The partnership proves to be effective, but they soon find themselves prey to a reign of chaos unleashed by a rising criminal mastermind known to the terrified citizens of Gotham as the Joker.", "release_date": "2008-07-16", "popularity": 44.441, "original_title": "The Dark Knight", "backdrop_path": "/hqkIcbrOHL86UncnHIsHVcVmzue.jpg", "vote_count": 18824, "video": false, "adult": false, "vote_average": 8.4, "genre_ids": [18, 28, 80, 53], "id": 155, "original_language": "en"}, {"poster_path": "/yE5d3BUhE8hCnkMUJOo1QDoOGNz.jpg", "title": "Forrest Gump", "overview": "A man with a low IQ has accomplished great things in his life and been present during significant historic events\u2014in each case, far exceeding what anyone imagined he could do. But despite all he has achieved, his one true love eludes him.", "release_date": "1994-07-06", "popularity": 31.1, "original_title": "Forrest Gump", "backdrop_path": "/wMgbnUVS9wbRGAdki8fqxKU1O0N.jpg", "vote_count": 14715, "video": false, "adult": false, "vote_average": 8.4, "genre_ids": [35, 18, 10749], "id": 13, "original_language": "en"}, {"poster_path": "/uHEmM49YphluJnGep8Ef1qwD2QX.jpg", "title": "A Dog's Will", "overview": "The lively Jo\u00e3o Grilo and the sly Chic\u00f3 are poor guys living in the hinterland who cheat a bunch of people in a small Northeast Brazil town. But when they die, they have to be judged by Christ, the Devil and the Virgin Mary, before they are admitted to paradise.", "release_date": "2000-09-15", "popularity": 10.666, "original_title": "O Auto da Compadecida", "backdrop_path": "/alQqTpmEkxSLgajfEYTsTH6nAKB.jpg", "vote_count": 439, "video": false, "adult": false, "vote_average": 8.4, "genre_ids": [12, 35], "id": 40096, "original_language": "pt"}, {"poster_path": "/adw6Lq9FiC9zjYEpOqfq03ituwp.jpg", "title": "Fight Club", "overview": "A ticking-time-bomb insomniac and a slippery soap salesman channel primal male aggression into a shocking new form of therapy. Their concept catches on, with underground \"fight clubs\" forming in every town, until an eccentric gets in the way and ignites an out-of-control spiral toward oblivion.", "release_date": "1999-10-15", "popularity": 34.911, "original_title": "Fight Club", "backdrop_path": "/mMZRKb3NVo5ZeSPEIaNW9buLWQ0.jpg", "vote_count": 16239, "video": false, "adult": false, "vote_average": 8.4, "genre_ids": [18], "id": 550, "original_language": "en"}, {"poster_path": "/81d8oyEFgj7FlxJqSDXWr8JH8kV.jpg", "title": "Psycho", "overview": "When larcenous real estate clerk Marion Crane goes on the lam with a wad of cash and hopes of starting a new life, she ends up at the notorious Bates Motel, where manager Norman Bates cares for his housebound mother. The place seems quirky, but fine\u2026 until Marion decides to take a shower.", "release_date": "1960-06-16", "popularity": 23.243, "original_title": "Psycho", "backdrop_path": "/3md49VBCeqY6MSNyAVY6d5eC6bA.jpg", "vote_count": 4912, "video": false, "adult": false, "vote_average": 8.4, "genre_ids": [27, 18], "id": 539, "original_language": "en"}, {"poster_path": "/rCzpDGLbOoPwLjy3OAm5NUPOTrC.jpg", "title": "The Lord of the Rings: The Return of the King", "overview": "Aragorn is revealed as the heir to the ancient kings as he, Gandalf and the other members of the broken fellowship struggle to save Gondor from Sauron's forces. Meanwhile, Frodo and Sam bring the ring closer to the heart of Mordor, the dark lord's realm.", "release_date": "2003-12-01", "popularity": 40.35, "original_title": "The Lord of the Rings: The Return of the King", "backdrop_path": "/8BPZO0Bf8TeAy8znF43z8soK3ys.jpg", "vote_count": 13119, "video": false, "adult": false, "vote_average": 8.4, "genre_ids": [12, 14, 28], "id": 122, "original_language": "en"}, {"poster_path": "/fqP3Q7DWMFqW7mh11hWXbNwN9rz.jpg", "title": "Once Upon a Time in America", "overview": "A former Prohibition-era Jewish gangster returns to the Lower East Side of Manhattan over thirty years later, where he once again must confront the ghosts and regrets of his old life.", "release_date": "1984-05-23", "popularity": 27.642, "original_title": "Once Upon a Time in America", "backdrop_path": "/vnT6HzjLSDrAweHn9xWykb8Ii6T.jpg", "vote_count": 2226, "video": false, "adult": false, "vote_average": 8.4, "genre_ids": [18, 80], "id": 311, "original_language": "en"}, {"poster_path": "/2Sns5oMb356JNdBHgBETjIpRYy9.jpg", "title": "One Flew Over the Cuckoo's Nest", "overview": "While serving time for insanity at a state mental hospital, implacable rabble-rouser, Randle Patrick McMurphy, inspires his fellow patients to rebel against the authoritarian rule of head nurse, Mildred Ratched.", "release_date": "1975-11-18", "popularity": 20.362, "original_title": "One Flew Over the Cuckoo's Nest", "backdrop_path": "/4E7YQcwui0PfNXguf4V2X8YocPC.jpg", "vote_count": 5458, "video": false, "adult": false, "vote_average": 8.4, "genre_ids": [18], "id": 510, "original_language": "en"}]}