{"total_results": 734, "total_pages": 37, "page": 1, "results": [{"origin_country": ["GB"], "poster_path": "/nMhv6jG5dtLdW7rgguYWvpbk0YN.jpg", "name": "I Am Not an Animal", "overview": "I Am Not An Animal is an animated comedy series about the only six talking animals in the world, whose cosseted existence in a vivisection unit is turned upside down when they are liberated by animal rights activists.", "popularity": 17.507, "original_name": "I Am Not an Animal", "id": 100, "vote_average": 9.5, "vote_count": 278, "first_air_date": "2004-05-10", "original_language": "en", "backdrop_path": "/o8Site0BMZ8xhknKJ0m52iLfqHg.jpg", "genre_ids": [16, 35]}, {"origin_country": ["US"], "poster_path": "/qJdfO3ahgAMf2rcmhoqngjBBZW1.jpg", "name": "Rick and Morty", "overview": "Rick is a mentally-unbalanced but scientifically-gifted old man who has recently reconnected with his family. He spends most of his time involving his young grandson Morty in dangerous, outlandish adventures throughout space and alternate universes. Compounded with Morty's already unstable family life, these events cause Morty much distress at home and school.", "popularity": 98.513, "original_name": "Rick and Morty", "id": 60625, "vote_average": 8.5, "vote_count": 1239, "first_air_date": "2013-12-02", "original_language": "en", "backdrop_path": "/mzzHr6g1yvZ05Mc7hNj3tUdy2bM.jpg", "genre_ids": [16, 35, 10759, 10765]}, {"origin_country": ["US"], "poster_path": "/eTMMU2rKpZRbo9ERytyhwatwAjz.jpg", "name": "Cobra Kai", "overview": "This Karate Kid sequel series picks up 30 years after the events of the 1984 All Valley Karate Tournament and finds Johnny Lawrence on the hunt for redemption by reopening the infamous Cobra Kai karate dojo. This reignites his old rivalry with the successful Daniel LaRusso, who has been working to maintain the balance in his life without mentor Mr. Miyagi.", "popularity": 47.723, "original_name": "Cobra Kai", "id": 77169, "vote_average": 8.4, "vote_count": 82, "first_air_date": "2018-05-02", "original_language": "en", "backdrop_path": "/x7QOl4QEVMOp6V4wsp3Kte3NLDY.jpg", "genre_ids": [18, 10759]}, {"origin_country": ["US"], "poster_path": "/1yeVJox3rjo2jBKrrihIMj7uoS9.jpg", "name": "Breaking Bad", "overview": "When Walter White, a New Mexico chemistry teacher, is diagnosed with Stage III cancer and given a prognosis of only two years left to live. He becomes filled with a sense of fearlessness and an unrelenting desire to secure his family's financial future at any cost as he enters the dangerous world of drugs and crime.", "popularity": 113.668, "original_name": "Breaking Bad", "id": 1396, "vote_average": 8.4, "vote_count": 3284, "first_air_date": "2008-01-20", "original_language": "en", "backdrop_path": "/eSzpy96DwBujGFj0xMbXBcGcfxX.jpg", "genre_ids": [18]}, {"origin_country": ["GB"], "poster_path": "/f9zGxLHGyQB10cMDZNY5ZcGKhZi.jpg", "name": "Sherlock", "overview": "A modern update finds the famous sleuth and his doctor partner solving crime in 21st century London.", "popularity": 48.182, "original_name": "Sherlock", "id": 19885, "vote_average": 8.3, "vote_count": 1720, "first_air_date": "2010-07-25", "original_language": "en", "backdrop_path": "/bvS50jBZXtglmLu72EAt5KgJBrL.jpg", "genre_ids": [80, 18, 9648]}, {"origin_country": ["JP"], "poster_path": "/yWBcBIO9OrF3E85C5Arols6QNnG.jpg", "name": "Hunter x Hunter", "overview": "Twelve-year-old Gon Freecss one day discovers that the father he had always been told was dead was alive and well. His Father, Ging, is a Hunter\u2014a member of society's elite with a license to go anywhere or do almost anything. Gon, determined to follow in his father's footsteps, decides to take the Hunter Examination and eventually find his father to prove himself as a Hunter in his own right. But on the way, he learns that there is more to becoming a Hunter than previously thought, and the challenges that he must face are considered the toughest in the world.", "popularity": 88.516, "original_name": "\u30cf\u30f3\u30bf\u30fc\uff58\u30cf\u30f3\u30bf\u30fc", "id": 46298, "vote_average": 8.3, "vote_count": 117, "first_air_date": "2011-10-02", "original_language": "ja", "backdrop_path": "/ye4oayd3csx8psElvvQPdO2fgdD.jpg", "genre_ids": [16, 35, 10759]}, {"origin_country": ["US"], "poster_path": "/dg7NuKDjmS6OzuNy33qt8kSkPA1.jpg", "name": "The Wire", "overview": "Told from the points of view of both the Baltimore homicide and narcotics detectives and their targets, the series captures a universe in which the national war on drugs has become a permanent, self-sustaining bureaucracy, and distinctions between good and evil are routinely obliterated.", "popularity": 33.385, "original_name": "The Wire", "id": 1438, "vote_average": 8.3, "vote_count": 811, "first_air_date": "2002-06-02", "original_language": "en", "backdrop_path": "/4hWfYN3wiOZZXC7t6B70BF9iUvk.jpg", "genre_ids": [80, 18]}, {"origin_country": ["US"], "poster_path": "/vNJ95BMCzIBJZhW0IEoxzOoW53P.jpg", "name": "Stranger Things", "overview": "When a young boy vanishes, a small town uncovers a mystery involving secret experiments, terrifying supernatural forces, and one strange little girl.", "popularity": 67.808, "original_name": "Stranger Things", "id": 66732, "vote_average": 8.3, "vote_count": 2250, "first_air_date": "2016-07-15", "original_language": "en", "backdrop_path": "/56v2KjBlU4XaOv9rVYEQypROD7P.jpg", "genre_ids": [18, 9648, 10765]}, {"origin_country": ["GB"], "poster_path": "/uy5QoTu8fc6fGXMCTMbpQJFUEB0.jpg", "name": "Planet Earth II", "overview": "David Attenborough presents a documentary series exploring how animals meet the challenges of surviving in the most iconic habitats on earth.", "popularity": 20.621, "original_name": "Planet Earth II", "id": 68595, "vote_average": 8.3, "vote_count": 322, "first_air_date": "2016-11-06", "original_language": "en", "backdrop_path": "/xIt4DDYipMPNu2HDBrhUS4ndSYb.jpg", "genre_ids": [99]}, {"origin_country": ["GB"], "poster_path": "/tI5hLHgrfOTOhPjX22vlo9YsdgE.jpg", "name": "Planet Earth", "overview": "David Attenborough celebrates the amazing variety of the natural world in this epic documentary series, filmed over four years across 64 different countries.", "popularity": 20.508, "original_name": "Planet Earth", "id": 1044, "vote_average": 8.3, "vote_count": 489, "first_air_date": "2006-03-05", "original_language": "en", "backdrop_path": "/4AJnC8L5CXdqb6tMeUBL5jdHfuG.jpg", "genre_ids": [99]}, {"origin_country": ["DE"], "poster_path": "/p83RbYTq3Kz8FEz4krJwMxU4Wkj.jpg", "name": "Das Boot", "overview": "Life aboard a German U-Boat during World War II.", "popularity": 8.251, "original_name": "Das Boot", "id": 65567, "vote_average": 8.2, "vote_count": 113, "first_air_date": "1985-02-24", "original_language": "de", "backdrop_path": "/eOdmJ2Ecm1eviIdw1v2pOkW0z3j.jpg", "genre_ids": [18, 10768]}, {"origin_country": ["US"], "poster_path": "/38PkhBGRQtmVx2drvPik3F42qHO.jpg", "name": "The Haunting of Hill House", "overview": "The Crains, a fractured family, confront haunting memories of their old home and the terrifying events that drove them from it.", "popularity": 29.499, "original_name": "The Haunting of Hill House", "id": 72844, "vote_average": 8.2, "vote_count": 211, "first_air_date": "2018-10-12", "original_language": "en", "backdrop_path": "/dQF17lG4OZ3pC4QD9iNjaMS96gO.jpg", "genre_ids": [18, 9648]}, {"origin_country": ["JP"], "poster_path": "/g8hHbsRmHYoWYizhWCk87vpkrmy.jpg", "name": "Death Note", "overview": "Light Yagami is an ace student with great prospects\u2014and he\u2019s bored out of his mind. But all that changes when he finds the Death Note, a notebook dropped by a rogue Shinigami death god. Any human whose name is written in the notebook dies, and Light has vowed to use the power of the Death Note to rid the world of evil. But will Light succeed in his noble goal, or will the Death Note turn him into the very thing he fights against?", "popularity": 79.399, "original_name": "DEATH NOTE", "id": 13916, "vote_average": 8.3, "vote_count": 523, "first_air_date": "2006-10-04", "original_language": "ja", "backdrop_path": "/A2j5g79EcWn1oTNCW9PSo7NZRfv.jpg", "genre_ids": [16, 9648]}, {"origin_country": ["US"], "poster_path": "/Ae08TtclKzZG1w5UzFfqPN8Zf7u.jpg", "name": "Over the Garden Wall", "overview": "Two brothers, Wirt and Greg, find themselves lost in the Unknown; a strange forest adrift in time. With the help of a wise old Woodsman and a foul-tempered bluebird named Beatrice, Wirt and Greg must travel across this strange land, in hope of finding their way home. Join them as they encounter surprises and obstacles on their journey through the wood.", "popularity": 8.987, "original_name": "Over the Garden Wall", "id": 61617, "vote_average": 8.2, "vote_count": 194, "first_air_date": "2014-11-03", "original_language": "en", "backdrop_path": "/nQ0EZKbC2YtczfVLwyU5Hm9ESGe.jpg", "genre_ids": [16, 35, 9648, 10751, 10765]}, {"origin_country": ["GB"], "poster_path": "/pqrGyLYS5WIsLXwCuxc46sOP50F.jpg", "name": "Peep Show", "overview": "Peep Show is an award-winning British sitcom starring David Mitchell and Robert Webb. The television programme is written by Jesse Armstrong and Sam Bain, with additional material by Mitchell and Webb amongst others. It has been broadcast on Channel 4 since 2003. The show's eighth series makes it the longest-returning comedy in Channel 4 history. Stylistically, the show uses point of view shots with the thoughts of main characters Mark and Jeremy audible as voiceovers.\n\nPeep Show follows the lives of two men from their twenties to thirties, Mark Corrigan, who has steady employment for most of the series, and Jeremy \"Jez\" Usbourne, an unemployed would-be musician. The pair met at the fictional Dartmouth University, and now share a flat in Croydon, South London. Mark is initially a loan manager at the fictional JLB Credit, later becoming a waiter, and then a bathroom supplies salesman. He is financially secure, but awkward and socially inept, with a pessimistic and cynical attitude. Jeremy, having split up with his girlfriend Big Suze prior to the first episode, now lives in Mark's spare room. He usually has a much more optimistic and energetic outlook on the world than Mark, yet his self-proclaimed talent as a musician has yet to be recognised, and he is not as popular or attractive as he would like to think himself, although he is more successful with the opposite sex than Mark.", "popularity": 16.177, "original_name": "Peep Show", "id": 815, "vote_average": 8.1, "vote_count": 145, "first_air_date": "2003-09-19", "original_language": "en", "backdrop_path": "/xoWBzIxfza235mOkvXt40uZSbqS.jpg", "genre_ids": [35]}, {"origin_country": ["US"], "poster_path": "/e890UetS6XH7kqltlZ8VU6qDaHU.jpg", "name": "Fargo", "overview": "A close-knit anthology series dealing with stories involving malice, violence and murder based in and around Minnesota.", "popularity": 31.381, "original_name": "Fargo", "id": 60622, "vote_average": 8.2, "vote_count": 1011, "first_air_date": "2014-04-15", "original_language": "en", "backdrop_path": "/qq1S5EjaaUrQAcMsn6raNFXpzHk.jpg", "genre_ids": [80, 18]}, {"origin_country": ["GB", "US"], "poster_path": "/yjqu0KEVAWz9eJQBvzrQMFlGD84.jpg", "name": "Band of Brothers", "overview": "Drawn from interviews with survivors of Easy Company, as well as their journals and letters, Band of Brothers chronicles the experiences of these men from paratrooper training in Georgia through the end of the war. As an elite rifle company parachuting into Normandy early on D-Day morning, participants in the Battle of the Bulge, and witness to the horrors of war, the men of Easy knew extraordinary bravery and extraordinary fear - and became the stuff of legend. Based on Stephen E. Ambrose's acclaimed book of the same name.", "popularity": 27.17, "original_name": "Band of Brothers", "id": 4613, "vote_average": 8.2, "vote_count": 1428, "first_air_date": "2001-09-09", "original_language": "en", "backdrop_path": "/1LrtAhWPSEetJLjblXvnaYtl7eA.jpg", "genre_ids": [18, 10759, 10768]}, {"origin_country": ["GB"], "poster_path": "/3UIzEm9dyT3DloFQOfJHwvcF52u.jpg", "name": "Only Fools and Horses", "overview": "The misadventures of two wheeler dealer brothers Del Boy and Rodney Trotter of \u201cTrotters Independent Traders PLC\u201d who scrape their living by selling dodgy goods believing that next year they will be millionaires.", "popularity": 16.765, "original_name": "Only Fools and Horses", "id": 72, "vote_average": 7.9, "vote_count": 124, "first_air_date": "1981-09-08", "original_language": "en", "backdrop_path": "/7u1hTVQ7TFbf220yeUo0mtBuKW8.jpg", "genre_ids": [35]}, {"origin_country": ["GB"], "poster_path": "/jeWoeUQyHdxGFNZCrzbOUP78FiZ.jpg", "name": "Peaky Blinders", "overview": "A gangster family epic set in 1919 Birmingham, England and centered on a gang who sew razor blades in the peaks of their caps, and their fierce boss Tommy Shelby, who means to move up in the world.", "popularity": 29.183, "original_name": "Peaky Blinders", "id": 60574, "vote_average": 8.2, "vote_count": 486, "first_air_date": "2013-09-12", "original_language": "en", "backdrop_path": "/inPxrxF5qBQ2H5dyjcMzibX5JA6.jpg", "genre_ids": [80, 18]}, {"origin_country": ["US"], "poster_path": "/aowr4xpLP5sRCL50TkuADomJ98T.jpg", "name": "True Detective", "overview": "An American anthology police detective series utilizing multiple timelines in which investigations seem to unearth personal and professional secrets of those involved, both within or outside the law.", "popularity": 30.315, "original_name": "True Detective", "id": 46648, "vote_average": 8.2, "vote_count": 1123, "first_air_date": "2014-01-12", "original_language": "en", "backdrop_path": "/2Ahm0YjLNQKuzSf9LOkHrXk8qIE.jpg", "genre_ids": [18]}]}