{"total_results": 272, "total_pages": 14, "page": 1, "results": [{"origin_country": ["JP"], "poster_path": "/iE3s0lG5QVdEHOEZnoAxjmMtvne.jpg", "name": "One-Punch Man", "overview": "Saitama is a hero who only became a hero for fun. After three years of \u201cspecial\u201d training, though, he\u2019s become so strong that he\u2019s practically invincible. In fact, he\u2019s too strong\u2014even his mightiest opponents are taken out with a single punch, and it turns out that being devastatingly powerful is actually kind of a bore. With his passion for being a hero lost along with his hair, yet still faced with new enemies every day, how much longer can he keep it going?", "popularity": 375.965, "original_name": "\u30ef\u30f3\u30d1\u30f3\u30de\u30f3", "id": 63926, "vote_average": 8.1, "vote_count": 365, "first_air_date": "2015-10-04", "original_language": "ja", "backdrop_path": "/s0w8JbuNNxL1YgaHeDWih12C3jG.jpg", "genre_ids": [16, 35, 10759]}, {"origin_country": ["US"], "poster_path": "/hlLXt2tOPT6RRnjiUmoxyG1LTFi.jpg", "name": "Chernobyl", "overview": "A dramatization of the true story of one of the worst man-made catastrophes in history, the catastrophic nuclear accident at Chernobyl. A tale of the brave men and women who sacrificed to save Europe from unimaginable disaster.", "popularity": 266.651, "original_name": "Chernobyl", "id": 87108, "vote_average": 8, "vote_count": 99, "first_air_date": "2019-05-06", "original_language": "en", "backdrop_path": "/900tHlUYUkp7Ol04XFSoAaEIXcT.jpg", "genre_ids": [18]}, {"origin_country": ["US"], "poster_path": "/xbWqfPKBhqOZQEGq7HdDkX0Bjib.jpg", "name": "Blood & Treasure", "overview": "An antiquities expert teams up with an art thief to catch a terrorist who funds his attacks using stolen artifacts.", "popularity": 167.988, "original_name": "Blood & Treasure", "id": 88118, "vote_average": 5.2, "vote_count": 5, "first_air_date": "2019-05-21", "original_language": "en", "backdrop_path": "/uov6mcUkg3GuqpGopSqWbhAEWLF.jpg", "genre_ids": [18, 10759]}, {"origin_country": [], "poster_path": "/vdRt0W5sZDLlshT2o3y7c7gZYJA.jpg", "name": "Wise Man\u2019s Grandchild", "overview": "A young man who had surely died in an accident, was reborn in another world as a baby! After that, he was picked up by the patriot hero \"Sage\" Merlin Wolford and was given the name Shin. He was raised as a grandson by Merlin and soaked up Merlin's teachings, earning him some shocking powers; however, when he became 15, his grandfather Merlin said, \"I forgot to teach him common sense!\"\n\nAn \"abnormal\" boy's unconventional other world fantasy life starts here!", "popularity": 166.846, "original_name": "\u8ce2\u8005\u306e\u5b6b", "id": 85844, "vote_average": 6.5, "vote_count": 20, "first_air_date": "2019-04-10", "original_language": "ja", "backdrop_path": "/3sExYAo2rNhKgrHx8S37WMTJHZv.jpg", "genre_ids": [16, 35, 10759, 10765]}, {"origin_country": ["JP"], "poster_path": "/58GKcwFV3lpVOGzybeMrrNOjHpz.jpg", "name": "Fairy Tail", "overview": "Lucy is a 17-year-old girl, who wants to be a full-fledged mage. One day when visiting Harujion Town, she meets Natsu, a young man who gets sick easily by any type of transportation. But Natsu isn't just any ordinary kid, he's a member of one of the world's most infamous mage guilds: Fairy Tail.", "popularity": 141.011, "original_name": "\u30d5\u30a7\u30a2\u30ea\u30fc\u30c6\u30a4\u30eb", "id": 46261, "vote_average": 6.5, "vote_count": 164, "first_air_date": "2009-10-12", "original_language": "ja", "backdrop_path": "/m2lugAG39sO0yCcuxEAu4fY5u1o.jpg", "genre_ids": [16, 35, 10759, 10765]}, {"origin_country": ["JP"], "poster_path": "/taT33NroOl2Fn8bUGj8bwdmNw3G.jpg", "name": "Demon Slayer: Kimetsu no Yaiba", "overview": "It is the Taisho Period in Japan. Tanjiro, a kindhearted boy who sells charcoal for a living, finds his family slaughtered by a demon. To make matters worse, his younger sister Nezuko, the sole survivor, has been transformed into a demon herself.\n\nThough devastated by this grim reality, Tanjiro resolves to become a \u201cdemon slayer\u201d so that he can turn his sister back into a human, and kill the demon that massacred his family.", "popularity": 109.194, "original_name": "\u9b3c\u6ec5\u306e\u5203", "id": 85937, "vote_average": 6, "vote_count": 11, "first_air_date": "2019-04-06", "original_language": "ja", "backdrop_path": "/nTvM4mhqNlHIvUkI1gVnW6XP7GG.jpg", "genre_ids": [16]}, {"origin_country": ["JP"], "poster_path": "/fBX1QMl4iZOKxuRuBOMnoHlmS4l.jpg", "name": "Attack on Titan", "overview": "Several hundred years ago, humans were nearly exterminated by Titans. Titans are typically several stories tall, seem to have no intelligence, devour human beings and, worst of all, seem to do it for the pleasure rather than as a food source. A small percentage of humanity survived by walling themselves in a city protected by extremely high walls, even taller than the biggest Titans. Flash forward to the present and the city has not seen a Titan in over 100 years. Teenage boy Eren and his foster sister Mikasa witness something horrific as the city walls are destroyed by a Colossal Titan that appears out of thin air. As the smaller Titans flood the city, the two kids watch in horror as their mother is eaten alive. Eren vows that he will murder every single Titan and take revenge for all of mankind.", "popularity": 99.57, "original_name": "\u9032\u6483\u306e\u5de8\u4eba", "id": 1429, "vote_average": 7.7, "vote_count": 411, "first_air_date": "2013-04-06", "original_language": "ja", "backdrop_path": "/jlVhGQkhOXaMyQbMoA5vae9bAmi.jpg", "genre_ids": [16, 18, 9648, 10765, 10768]}, {"origin_country": ["US"], "poster_path": "/eo2Xu4UWXHE8UlBlAktNiSsAmfx.jpg", "name": "American Dad!", "overview": "The series focuses on an eccentric motley crew that is the Smith family and their three housemates: Father, husband, and breadwinner Stan Smith; his better half housewife, Francine Smith; their college-aged daughter, Hayley Smith; and their high-school-aged son, Steve Smith. Outside of the Smith family, there are three additional main characters, including Hayley's boyfriend turned husband, Jeff Fischer; the family's man-in-a-goldfish-body pet, Klaus; and most notably the family's zany alien, Roger, who is \"full of masquerades, brazenness, and shocking antics.\"", "popularity": 98.189, "original_name": "American Dad!", "id": 1433, "vote_average": 6.1, "vote_count": 665, "first_air_date": "2005-02-06", "original_language": "en", "backdrop_path": "/vddYkC55H3DqWK5cG5hepSnhzGP.jpg", "genre_ids": [16, 35]}, {"origin_country": ["US"], "poster_path": "/rNknh7XQUWvm4j9WeuhUJhT9NP4.jpg", "name": "Sesame Street", "overview": "On a special inner city street, the inhabitants\u2014human and muppet\u2014teach preschoolers basic educational and social concepts using comedy, cartoons, games, and songs.", "popularity": 91.929, "original_name": "Sesame Street", "id": 502, "vote_average": 7.4, "vote_count": 82, "first_air_date": "1969-11-10", "original_language": "en", "backdrop_path": "/6HswtHbletDHrR8B84U5KWkXheQ.jpg", "genre_ids": [16, 35, 10751]}, {"origin_country": ["US"], "poster_path": "/q9dObe29W4bDpgzUfOOH3ZnzDbR.jpg", "name": "Elementary", "overview": "A modern-day drama about a crime-solving duo that cracks the NYPD's most impossible cases. Following his fall from grace in London and a stint in rehab, eccentric Sherlock escapes to Manhattan where his wealthy father forces him to live with his worst nightmare - a sober companion, Dr. Watson.", "popularity": 77.382, "original_name": "Elementary", "id": 1415, "vote_average": 7, "vote_count": 632, "first_air_date": "2012-09-27", "original_language": "en", "backdrop_path": "/7sJrNKwzyJWnFPFpDL9wnZ859LZ.jpg", "genre_ids": [80, 18, 9648]}, {"origin_country": [], "poster_path": "/wpE6AirS1RHQO66ieHnRsSL8gyJ.jpg", "name": "JoJo's Bizarre Adventure Part 5 : Golden Wind", "overview": "", "popularity": 75.446, "original_name": "JoJo no Kimyou na Bouken Ougon no Kaze", "id": 88513, "vote_average": 10, "vote_count": 1, "first_air_date": "2018-07-05", "original_language": "ja", "backdrop_path": null, "genre_ids": []}, {"origin_country": ["US"], "poster_path": "/oYXxZIiI7lVh6IUCCikImKwULHB.jpg", "name": "Fear the Walking Dead", "overview": "What did the world look like as it was transforming into the horrifying apocalypse depicted in \"The Walking Dead\"? This spin-off set in Los Angeles, following new characters as they face the beginning of the end of the world, will answer that question.", "popularity": 71.689, "original_name": "Fear the Walking Dead", "id": 62286, "vote_average": 6.3, "vote_count": 911, "first_air_date": "2015-08-23", "original_language": "en", "backdrop_path": "/7r4FieFH6Eh6S55hi8c9LOiFENg.jpg", "genre_ids": [18, 27]}, {"origin_country": ["US"], "poster_path": "/DRRHgvsNEfBloMgIP8bBw4zi4E.jpg", "name": "Jane the Virgin", "overview": "A comedy-drama following a chaste young woman who is accidentally impregnated via artificial insemination as she struggles to inform her devoutly religious family and make the right choices concerning the child. Based on the telenovela \"Juana la virgen.\"", "popularity": 71.012, "original_name": "Jane the Virgin", "id": 61418, "vote_average": 6.7, "vote_count": 162, "first_air_date": "2014-10-13", "original_language": "en", "backdrop_path": "/8JTXlBgy6JjWeLtQR38Ah9WjaNJ.jpg", "genre_ids": [35, 18]}, {"origin_country": ["JP"], "poster_path": "/6lc1Snwv1gsYBbT5ZVx7Iv9h2to.jpg", "name": "The Rising of The Shield Hero", "overview": "Iwatani Naofumi was summoned into a parallel world along with 3 other people to become the world's Heroes. Each of the heroes respectively equipped with their own legendary equipment when summoned, Naofumi received the Legendary Shield as his weapon. Due to Naofumi's lack of charisma and experience he's labeled as the weakest, only to end up betrayed, falsely accused, and robbed by on the third day of adventure. Shunned by everyone from the king to peasants, Naofumi's thoughts were filled with nothing but vengeance and hatred. Thus, his destiny in a parallel World begins...", "popularity": 70.29, "original_name": "\u76fe\u306e\u52c7\u8005\u306e\u6210\u308a\u4e0a\u304c\u308a", "id": 83095, "vote_average": 8.5, "vote_count": 23, "first_air_date": "2019-01-09", "original_language": "ja", "backdrop_path": "/63hr8JQSfsxWtY6JxJGxyUYDw5Q.jpg", "genre_ids": [16, 18, 10759, 10765]}, {"origin_country": ["GB"], "poster_path": "/vGrS1mzlSHQQdOcmqH1zlE2iViY.jpg", "name": "Black Mirror", "overview": "A contemporary British re-working of The Twilight Zone with stories that tap into the collective unease about our modern world.\u00a0\n\nOver the last ten years, technology has transformed almost every aspect of our lives before we've had time to stop and question it. In every home; on every desk; in every palm - a plasma screen; a monitor; a smartphone - a black mirror of our 21st Century existence.", "popularity": 69.384, "original_name": "Black Mirror", "id": 42009, "vote_average": 8.2, "vote_count": 1276, "first_air_date": "2011-12-04", "original_language": "en", "backdrop_path": "/b92npz1sZwvmjUfVIrWXehrk3pc.jpg", "genre_ids": [18, 10765]}, {"origin_country": ["US"], "poster_path": "/q4nqNwAhzVR7JuYctrWJvUWz3xR.jpg", "name": "iZombie", "overview": "A medical student who becomes a zombie joins a Coroner's Office in order to gain access to the brains she must reluctantly eat so that she can maintain her humanity. But every brain she eats, she also inherits their memories and must now solve their deaths with help from the Medical examiner and a police detective.", "popularity": 59.462, "original_name": "iZombie", "id": 60866, "vote_average": 7, "vote_count": 450, "first_air_date": "2015-03-17", "original_language": "en", "backdrop_path": "/d2YDPTQPe3mI2LqBWwb0CchN54f.jpg", "genre_ids": [80, 18, 27, 10765]}, {"origin_country": ["US"], "poster_path": "/fTCSDJbmRbW23LSGcbfM0OTrtyR.jpg", "name": "Billions", "overview": "A complex drama about power politics in the world of New York high finance. \n\nShrewd, savvy U.S. Attorney Chuck Rhoades and the brilliant, ambitious hedge fund king Bobby \"Axe\" Axelrod are on an explosive collision course, with each using all of his considerable smarts, power and influence to outmaneuver the other. The stakes are in the billions in this timely, provocative series.", "popularity": 53.092, "original_name": "Billions", "id": 62852, "vote_average": 7.7, "vote_count": 288, "first_air_date": "2016-01-17", "original_language": "en", "backdrop_path": "/6f3s7NbujF9NGBIdBQhRJcZAbFy.jpg", "genre_ids": [18]}, {"origin_country": ["US"], "poster_path": "/j4aKlHjHuLqZiBlYLCEkXKlgakn.jpg", "name": "The InBetween", "overview": "Cassie Bishop was born with a gift, though she may call it a curse. She can see and communicate with the dead, helping them with their unresolved problems \u2026 whether she likes it or not. When her longtime friend Det. Tom Hackett and his new partner, former FBI Agent Damien Asante, need help solving a darkly puzzling murder, Cassie agrees to use her abilities.", "popularity": 52.647, "original_name": "The InBetween", "id": 81947, "vote_average": 7, "vote_count": 1, "first_air_date": "2019-05-29", "original_language": "en", "backdrop_path": "/gH924Hhqk5Mk9guQfxVJsNvcMSq.jpg", "genre_ids": [18, 10765]}, {"origin_country": ["US"], "poster_path": "/dD3HcMczLC9wNvfNzx4pZVyl6q8.jpg", "name": "Swamp Thing", "overview": "CDC researcher Abby Arcane investigates what seems to be a deadly swamp-born virus in a small town in Louisiana but she soon discovers that the swamp holds mystical and terrifying secrets. When unexplainable and chilling horrors emerge from the murky marsh, no one is safe.", "popularity": 51.73, "original_name": "Swamp Thing", "id": 79240, "vote_average": 9, "vote_count": 2, "first_air_date": "2019-05-31", "original_language": "en", "backdrop_path": "/5YEnPWmTMpPtFk3MxjlfO1U1xW5.jpg", "genre_ids": [18, 9648, 10765]}, {"origin_country": ["JP"], "poster_path": "/tMvMlJB4rB5LITV4RrNi2dVfr1s.jpg", "name": "Bungo Stray Dogs", "overview": "Nakajima Atsushi was kicked out of his orphanage, and now he has no place to go and no food. While he is standing by a river, on the brink of starvation, he rescues a man whimsically attempting suicide. That man is Dazai Osamu, and he and his partner Kunikida are members of a very special detective agency. They have supernatural powers and deal with cases that are too dangerous for the police or the military. They're tracking down a tiger that has appeared in the area recently, around the time Atsushi came to the area. The tiger seems to have a connection to Atsushi, and by the time the case is solved, it is clear that Atsushi's future will involve much more of Dazai and the rest of the detectives!", "popularity": 50.505, "original_name": "\u6587\u8c6a\u30b9\u30c8\u30ec\u30a4\u30c9\u30c3\u30b0\u30b9", "id": 65931, "vote_average": 7.5, "vote_count": 26, "first_air_date": "2016-04-07", "original_language": "ja", "backdrop_path": "/buYqYfipdMi9ZByIAZyRTiUBHD.jpg", "genre_ids": []}]}