{"total_results": 417945, "total_pages": 20898, "page": 1, "results": [{"poster_path": "/3iYQTLGoy7QnjcUYRJy4YrAgGvp.jpg", "title": "Aladdin", "overview": "A kindhearted street urchin named Aladdin embarks on a magical adventure after finding a lamp that releases a wisecracking genie while a power-hungry Grand Vizier vies for the same lamp that has the power to make their deepest wishes come true.", "release_date": "2019-05-22", "popularity": 559.104, "original_title": "Aladdin", "backdrop_path": "/v4yVTbbl8dE1UP2dWu5CLyaXOku.jpg", "vote_count": 452, "video": false, "adult": false, "vote_average": 7.2, "genre_ids": [12, 14, 10402, 10749, 35, 10751], "id": 420817, "original_language": "en"}, {"poster_path": "/ziEuG1essDuWuC5lpWUaw1uXY2O.jpg", "title": "John Wick: Chapter 3 \u2013 Parabellum", "overview": "Super-assassin John Wick returns with a $14 million price tag on his head and an army of bounty-hunting killers on his trail. After killing a member of the shadowy international assassin\u2019s guild, the High Table, John Wick is excommunicado, but the world\u2019s most ruthless hit men and women await his every turn.", "release_date": "2019-05-15", "popularity": 519.819, "original_title": "John Wick: Chapter 3 \u2013 Parabellum", "backdrop_path": "/dk4hNOvunEoGxtaB591EUTmbFMg.jpg", "vote_count": 594, "video": false, "adult": false, "vote_average": 7.4, "genre_ids": [80, 28, 53], "id": 458156, "original_language": "en"}, {"poster_path": "/or06FN3Dka5tukK1e9sl16pB3iy.jpg", "title": "Avengers: Endgame", "overview": "After the devastating events of Avengers: Infinity War, the universe is in ruins due to the efforts of the Mad Titan, Thanos. With the help of remaining allies, the Avengers must assemble once more in order to undo Thanos' actions and restore order to the universe once and for all, no matter what consequences may be in store.", "release_date": "2019-04-24", "popularity": 278.787, "original_title": "Avengers: Endgame", "backdrop_path": "/7RyHsO4yDXtBv1zUU3mTpHeQ0d5.jpg", "vote_count": 6093, "video": false, "adult": false, "vote_average": 8.5, "genre_ids": [12, 878, 28], "id": 299534, "original_language": "en"}, {"poster_path": "/ux2dU1jQ2ACIMShzB3yP93Udpzc.jpg", "title": "Us", "overview": "Husband and wife Gabe and Adelaide Wilson take their kids to their beach house expecting to unplug and unwind with friends. But as night descends, their serenity turns to tension and chaos when some shocking visitors arrive uninvited.", "release_date": "2019-03-14", "popularity": 183.897, "original_title": "Us", "backdrop_path": "/AiG8iWpFtFSXAdhStWu6qBaqmv9.jpg", "vote_count": 1465, "video": false, "adult": false, "vote_average": 7.1, "genre_ids": [53, 27], "id": 458723, "original_language": "en"}, {"poster_path": "/wgQ7APnFpf1TuviKHXeEe3KnsTV.jpg", "title": "Pok\u00e9mon Detective Pikachu", "overview": "In a world where people collect pocket-size monsters (Pok\u00e9mon) to do battle, a boy comes across an intelligent monster who seeks to be a detective.", "release_date": "2019-05-03", "popularity": 173.898, "original_title": "Pok\u00e9mon Detective Pikachu", "backdrop_path": "/nDP33LmQwNsnPv29GQazz59HjJI.jpg", "vote_count": 911, "video": false, "adult": false, "vote_average": 7, "genre_ids": [9648, 10751, 35, 878, 28, 12], "id": 447404, "original_language": "en"}, {"poster_path": "/xnopI5Xtky18MPhK40cZAGAOVeV.jpg", "title": "Shazam!", "overview": "A boy is given the ability to become an adult superhero in times of need with a single magic word.", "release_date": "2019-03-23", "popularity": 168.955, "original_title": "Shazam!", "backdrop_path": "/bi4jh0Kt0uuZGsGJoUUfqmbrjQg.jpg", "vote_count": 1724, "video": false, "adult": false, "vote_average": 7.1, "genre_ids": [28, 12, 35, 14], "id": 287947, "original_language": "en"}, {"poster_path": "/4HngNLzCmUYCPB8FbxSZWN0eDKM.jpg", "title": "Escobar: Paradise Lost", "overview": "For Pablo Escobar family is everything. When young surfer Nick falls for Escobar's niece, Maria, he finds his life on the line when he's pulled into the dangerous world of the family business.", "release_date": "2014-10-11", "popularity": 162.652, "original_title": "Escobar: Paradise Lost", "backdrop_path": "/gbwOFHXSLi1DD3D7eI2vlZWIAyq.jpg", "vote_count": 471, "video": false, "adult": false, "vote_average": 6.3, "genre_ids": [53, 10749], "id": 255343, "original_language": "en"}, {"poster_path": "/kZMCbp0o46Tsg43omSHNHJKNTx9.jpg", "title": "Catarina and the others", "overview": "Outside, the first sun rays break the dawn.  Sixteen years old Catarina can't fall asleep.  Inconsequently, in the big city adults are moved by desire...  Catarina found she is HIV positive. She wants to drag everyone else along.", "release_date": "2011-03-01", "popularity": 161.105, "original_title": "Catarina e os Outros", "backdrop_path": "/9nDiMhvL3FtaWMsvvvzQIuq276X.jpg", "vote_count": 24, "video": false, "adult": false, "vote_average": 4.9, "genre_ids": [18, 9648], "id": 280960, "original_language": "pt"}, {"poster_path": "/AtsgWhDnHTq68L0lLsUrCnM7TjG.jpg", "title": "Captain Marvel", "overview": "The story follows Carol Danvers as she becomes one of the universe\u2019s most powerful heroes when Earth is caught in the middle of a galactic war between two alien races. Set in the 1990s, Captain Marvel is an all-new adventure from a previously unseen period in the history of the Marvel Cinematic Universe.", "release_date": "2019-03-06", "popularity": 143.498, "original_title": "Captain Marvel", "backdrop_path": "/iNUuGUIHeeGsvOPxMRBnytpxxlz.jpg", "vote_count": 5056, "video": false, "adult": false, "vote_average": 7.1, "genre_ids": [28, 12, 878], "id": 299537, "original_language": "en"}, {"poster_path": "/roslEbKdY0WSgYaB5KXvPKY0bXS.jpg", "title": "Brightburn", "overview": "A child from another world crash-lands on Earth, but instead of becoming a hero to mankind, he is an evil little boy.", "release_date": "2019-05-09", "popularity": 140.898, "original_title": "Brightburn", "backdrop_path": "/uHEI6v8ApQusjbaRZ8o7WcLYeWb.jpg", "vote_count": 91, "video": false, "adult": false, "vote_average": 5.6, "genre_ids": [27, 878, 18, 53], "id": 531309, "original_language": "en"}, {"poster_path": "/4tS0iyKQBDFqVpVcH21MSJwXZdq.jpg", "title": "Fate/stay night: Heaven\u2019s Feel II. lost butterfly", "overview": "Theatrical-release adaptation of the visual novel \"Fate/stay night\", following the third and final route. (Part 2 of a trilogy.)", "release_date": "2019-01-12", "popularity": 136.929, "original_title": "\u5287\u5834\u7248 Fate\uff0fstay night [Heaven's Feel] II. lost butterfly", "backdrop_path": "/2zKusjJZd8b2Cdk2C5K9dGFNWiJ.jpg", "vote_count": 48, "video": false, "adult": false, "vote_average": 4.9, "genre_ids": [16, 28, 14, 12], "id": 390634, "original_language": "ja"}, {"poster_path": "/qwDA7qSSQLwQ7JgDmHrflHFyQZf.jpg", "title": "Vaarikkuzhiyile Kolapathakam", "overview": "Vaarikkuzhiyile Kolapathakam is a 2019 Malayalam mystery thriller film directed by Rejishh Midhila for Take One Entertainments. A low profile film, but was released with highly positive reviews and became a sleeper hit. The film is getting ready for a release in China.", "release_date": "2019-02-22", "popularity": 130.694, "original_title": "\u0d35\u0d3e\u0d30\u0d3f\u0d15\u0d4d\u0d15\u0d41\u0d34\u0d3f\u0d2f\u0d3f\u0d32\u0d46 \u0d15\u0d4a\u0d32\u0d2a\u0d3e\u0d24\u0d15\u0d02", "backdrop_path": null, "vote_count": 1, "video": false, "adult": false, "vote_average": 2, "genre_ids": [35, 53], "id": 579598, "original_language": "ml"}, {"poster_path": "/7WsyChQLEftFiDOVTGkv3hFpyyt.jpg", "title": "Avengers: Infinity War", "overview": "As the Avengers and their allies have continued to protect the world from threats too large for any one hero to handle, a new danger has emerged from the cosmic shadows: Thanos. A despot of intergalactic infamy, his goal is to collect all six Infinity Stones, artifacts of unimaginable power, and use them to inflict his twisted will on all of reality. Everything the Avengers have fought for has led up to this moment - the fate of Earth and existence itself has never been more uncertain.", "release_date": "2018-04-25", "popularity": 123.496, "original_title": "Avengers: Infinity War", "backdrop_path": "/bOGkgRGdhrBYJSLpXaxhXVstddV.jpg", "vote_count": 13706, "video": false, "adult": false, "vote_average": 8.3, "genre_ids": [12, 28, 14], "id": 299536, "original_language": "en"}, {"poster_path": "/b9uYMMbm87IBFOq59pppvkkkgNg.jpg", "title": "John Wick", "overview": "Ex-hitman John Wick comes out of retirement to track down the gangsters that took everything from him.", "release_date": "2014-10-22", "popularity": 123.083, "original_title": "John Wick", "backdrop_path": "/mFb0ygcue4ITixDkdr7wm1Tdarx.jpg", "vote_count": 9860, "video": false, "adult": false, "vote_average": 7.2, "genre_ids": [28, 53], "id": 245891, "original_language": "en"}, {"poster_path": "/qibqW5Dnvqp4hcEnoTARbQgxwJy.jpg", "title": "The Hustle", "overview": "Two female scam artists, one low rent and the other high class, compete to swindle a na\u00efve tech prodigy out of his fortune. A remake of the 1988 comedy \"Dirty Rotten Scoundrels.\"", "release_date": "2019-05-09", "popularity": 118.377, "original_title": "The Hustle", "backdrop_path": "/s6awXOxTKYQLSktiIJfI3969dZH.jpg", "vote_count": 135, "video": false, "adult": false, "vote_average": 6, "genre_ids": [35], "id": 449562, "original_language": "en"}, {"poster_path": "/xvx4Yhf0DVH8G4LzNISpMfFBDy2.jpg", "title": "How to Train Your Dragon: The Hidden World", "overview": "As Hiccup fulfills his dream of creating a peaceful dragon utopia, Toothless\u2019 discovery of an untamed, elusive mate draws the Night Fury away. When danger mounts at home and Hiccup\u2019s reign as village chief is tested, both dragon and rider must make impossible decisions to save their kind.", "release_date": "2019-01-03", "popularity": 112.353, "original_title": "How to Train Your Dragon: The Hidden World", "backdrop_path": "/lFwykSz3Ykj1Q3JXJURnGUTNf1o.jpg", "vote_count": 1895, "video": false, "adult": false, "vote_average": 7.6, "genre_ids": [16, 10751, 12], "id": 166428, "original_language": "en"}, {"poster_path": "/7SPhr7Qj39vbnfF9O2qHRYaKHAL.jpg", "title": "Pet Sematary", "overview": "Louis Creed, his wife Rachel and their two children Gage and Ellie move to a rural home where they are welcomed and enlightened about the eerie 'Pet Sematary' located nearby. After the tragedy of their cat being killed by a truck, Louis resorts to burying it in the mysterious pet cemetery, which is definitely not as it seems, as it proves to the Creeds that sometimes dead is better.", "release_date": "2019-04-04", "popularity": 106.616, "original_title": "Pet Sematary", "backdrop_path": "/n2aX63BmW7zIKgKJ58e6rKlSsdi.jpg", "vote_count": 630, "video": false, "adult": false, "vote_average": 5.8, "genre_ids": [53, 9648, 27], "id": 157433, "original_language": "en"}, {"poster_path": "/5damnMcRFKSjhCirgX3CMa88MBj.jpg", "title": "Cars", "overview": "Lightning McQueen, a hotshot rookie race car driven to succeed, discovers that life is about the journey, not the finish line, when he finds himself unexpectedly detoured in the sleepy Route 66 town of Radiator Springs. On route across the country to the big Piston Cup Championship in California to compete against two seasoned pros, McQueen gets to know the town's offbeat characters.", "release_date": "2006-06-08", "popularity": 106.576, "original_title": "Cars", "backdrop_path": "/a1MlbLBk5Sy6YvMbSuKfwGlDVlb.jpg", "vote_count": 7459, "video": false, "adult": false, "vote_average": 6.7, "genre_ids": [16, 12, 35, 10751], "id": 920, "original_language": "en"}, {"poster_path": "/svIDTNUoajS8dLEo7EosxvyAsgJ.jpg", "title": "Glass", "overview": "In a series of escalating encounters, security guard David Dunn uses his supernatural abilities to track Kevin Wendell Crumb, a disturbed man who has twenty-four personalities. Meanwhile, the shadowy presence of Elijah Price emerges as an orchestrator who holds secrets critical to both men.", "release_date": "2019-01-16", "popularity": 98.168, "original_title": "Glass", "backdrop_path": "/rL1ITQuX0lmSNPu52pRRHUyim5N.jpg", "vote_count": 2963, "video": false, "adult": false, "vote_average": 6.5, "genre_ids": [53, 9648, 18], "id": 450465, "original_language": "en"}, {"poster_path": "/otK0H9H1w3JVGJjad5Kzx3Z9kt2.jpg", "title": "Cold Pursuit", "overview": "The quiet family life of Nels Coxman, a snowplow driver, is upended after his son's murder. Nels begins a vengeful hunt for Viking, the drug lord he holds responsible for the killing, eliminating Viking's associates one by one. As Nels draws closer to Viking, his actions bring even more unexpected and violent consequences, as he proves that revenge is all in the execution.", "release_date": "2019-02-07", "popularity": 95.783, "original_title": "Cold Pursuit", "backdrop_path": "/aiM3XxYE2JvW1vJ4AC6cI1RjAoT.jpg", "vote_count": 601, "video": false, "adult": false, "vote_average": 5.2, "genre_ids": [28, 18, 53, 80], "id": 438650, "original_language": "en"}]}