{"total_results": 22, "total_pages": 2, "page": 1, "results": [{"poster_path": "/q0R4crx2SehcEEQEkYObktdeFy.jpg", "title": "Minions", "overview": "Minions Stuart, Kevin and Bob are recruited by Scarlet Overkill, a super-villain who, alongside her inventor husband Herb, hatches a plot to take over the world.", "release_date": "2015-06-17", "popularity": 12.176, "original_title": "Minions", "backdrop_path": "/iBvD5wzkghyTFDvq45sUDVmBsA9.jpg", "vote_count": 7317, "video": false, "adult": false, "vote_average": 6.4, "media_type": "movie", "genre_ids": [10751, 16, 12, 35], "id": 211672, "original_language": "en"}, {"poster_path": "/oKVtq8SvLaybXC9oofod4uLRfyW.jpg", "title": "Mower Minions", "overview": "The Minions need to raise $20 to purchase an as seen on TV banana blender. So they take up lawn mowing at an old folks home, with hilarious antics!", "release_date": "2016-07-08", "popularity": 5.271, "original_title": "Mower Minions", "backdrop_path": "/2r2pw6qR9E84t21NHxbYXzoEFpi.jpg", "vote_count": 100, "video": false, "adult": false, "vote_average": 6.5, "media_type": "movie", "genre_ids": [35, 16], "id": 403052, "original_language": "en"}, {"poster_path": "/nXfdj2JCvLZIPj9jYTFqopQMMsR.jpg", "title": "Minions: Training Wheels", "overview": "Margo, Edith, and Agnes spot an ice cream truck.The three of them go after the truck but Agnes falls as she attempts to pedal to the truck. The Minions, seeing her so upset by this, decide to build her a unicorn-themed motorcycle. Agnes goes for a little ride around town.", "release_date": "2013-12-10", "popularity": 5.993, "original_title": "Minions: Training Wheels", "backdrop_path": "/zez1YZjZ8rvFtJYXQshTCCW2cPp.jpg", "vote_count": 104, "video": false, "adult": false, "vote_average": 7.2, "media_type": "movie", "genre_ids": [12, 16, 35, 10751, 878], "id": 229408, "original_language": "en"}, {"poster_path": "/u1gyqMqRvdwj49vsBLRBGBs4Yoi.jpg", "title": "Minions: Orientation Day", "overview": "With so many jobs to choose from, the Minions have to make serious decisions after watching an 'Initiation Video'. What could go wrong?!", "release_date": "2010-12-13", "popularity": 5.601, "original_title": "Minions: Orientation Day", "backdrop_path": "/8BueE3xOMMd2Z2ix6ayqj2uPIGL.jpg", "vote_count": 117, "video": false, "adult": false, "vote_average": 6.9, "media_type": "movie", "genre_ids": [16, 35, 10751], "id": 54559, "original_language": "en"}, {"poster_path": "/s228fOCrB4sgJjMnnMK33AybaE2.jpg", "title": "Dark Minions", "overview": "Two slackers try to make a paycheck working an intergalactic warship.", "release_date": "2013-04-19", "popularity": 1.4, "original_title": "Dark Minions", "backdrop_path": null, "vote_count": 6, "video": false, "adult": false, "vote_average": 5.3, "media_type": "movie", "genre_ids": [878, 16, 35], "id": 327781, "original_language": "en"}, {"poster_path": "/bapLpnoV3PUbgcZNDwg6Hxe75HI.jpg", "title": "Puppy", "overview": "A Minion, seeing many owners walk their dogs, wants a puppy of his own. He tries to leash a ladybug but fails. Luckily, a UFO that sweeps away the ladybug somehow agrees to become a Puppy.", "release_date": "2013-12-10", "popularity": 5.815, "original_title": "Puppy", "backdrop_path": "/eAKzsYVHiC0bSNudVo9IgREurmm.jpg", "vote_count": 137, "video": false, "adult": false, "vote_average": 7.3, "media_type": "movie", "genre_ids": [16, 35, 10751, 878], "id": 229407, "original_language": "en"}, {"poster_path": "/uRlT6hzUE6pMCtSsUhKd7OtjD1l.jpg", "title": "Home Makeover", "overview": "The Minions have to make Gru's home safe for the children, before Child Services arrive!", "release_date": "2010-12-13", "popularity": 6.095, "original_title": "Home Makeover", "backdrop_path": "/43TK5GtHUiPelQpnSX0bl9ONLh0.jpg", "vote_count": 89, "video": false, "adult": false, "vote_average": 6.9, "media_type": "movie", "genre_ids": [16, 35, 10751], "id": 54553, "original_language": "en"}, {"poster_path": "/d7wrcnERHpa6fA3rhvTllIitGRm.jpg", "title": "Competition", "overview": "Two minions working in a bomb lab get competitive.  Short #1 from the 'Minions: 3 Mini-Movie Collection'.", "release_date": "2015-11-04", "popularity": 6.418, "original_title": "Competition", "backdrop_path": "/rsxhLIqVwMxlas5QoXSHcahPyOa.jpg", "vote_count": 48, "video": false, "adult": false, "vote_average": 6.1, "media_type": "movie", "genre_ids": [16, 10751], "id": 366142, "original_language": "en"}, {"origin_country": [], "poster_path": null, "name": "Dark Minions", "overview": "Two slackers try to make a paycheck working an intergalactic warship.", "popularity": 0.717, "original_name": "Dark Minions", "backdrop_path": null, "first_air_date": "2013-04-19", "vote_count": 4, "vote_average": 2.75, "media_type": "tv", "original_language": "en", "id": 55872, "genre_ids": [16, 35]}, {"poster_path": "/afIcxtzw37hunY6VkQw0DqKslO7.jpg", "title": "Banana", "overview": "The Minions fight over a delicious banana.. but is that all they want?!", "release_date": "2010-12-13", "popularity": 5.142, "original_title": "Banana", "backdrop_path": "/byw8CLHK87KRrLrCcFGf55dRjB6.jpg", "vote_count": 177, "video": false, "adult": false, "vote_average": 7.2, "media_type": "movie", "genre_ids": [16, 35, 10751], "id": 54551, "original_language": "en"}, {"poster_path": null, "title": "Minions: The Rise of Gru", "overview": "", "release_date": "2020-07-01", "popularity": 1.128, "original_title": "Minions: The Rise of Gru", "backdrop_path": null, "vote_count": 0, "video": false, "adult": false, "vote_average": 0, "media_type": "movie", "genre_ids": [10751, 16, 28, 12, 35], "id": 438148, "original_language": "en"}, {"poster_path": "/2fmLYPOWsJ66XllnqV5L4fHwg0o.jpg", "title": "Minions - Jingle Bells", "overview": "Minions singing Jingle Bells.", "release_date": "2014-12-11", "popularity": 0.818, "original_title": "Minions - Jingle Bells", "backdrop_path": "/5NuuBmwbNzBEIlOHPPso3LcIz12.jpg", "vote_count": 6, "video": false, "adult": false, "vote_average": 4.8, "media_type": "movie", "genre_ids": [], "id": 375186, "original_language": "en"}, {"poster_path": "/5SqA7iyEHbA1UAizvs64MjibFHR.jpg", "title": "The Minions", "overview": "William stands at the window telling Abigail his story of walking down 'the witches' path. The unseen spectral Abigail taunts William suggesting that he walked down the path hoping to see her. William does not contradict her, but instead recalls that just as he thought he had made it past, 'and then the girls appeared'. As the story continues in flashback, William discovers two drunk girls - Sarah and the very wasted Katrina - who ask for his assistance. Seeing the helplessness of their situation, William decides to help walk the girls home. William is slowly drawn in by Katrina first by her mindlessly echoing of 'Love me' and then by her demanding a kiss. William gives her a kiss at first reluctantly and then more passionately at her urging. Abigail torments the conflicted William telling him that the girls are really minions of the witches. As the trio approach Katrina's apartment, Sarah can only watch in fear as William becomes more physically possessive of Katrina.", "release_date": "2014-10-30", "popularity": 0.629, "original_title": "The Minions", "backdrop_path": null, "vote_count": 1, "video": false, "adult": false, "vote_average": 5, "media_type": "movie", "genre_ids": [9648, 27], "id": 295987, "original_language": "en"}, {"poster_path": "/5OqSdTuwFIZpmZL2dP4J7C64wAs.jpg", "title": "Panic in the Mailroom", "overview": "Two Minions are busy at work in the mailroom. One of them, bored, decides to throw a box of expired PX-41 samples into its designated chute.", "release_date": "2013-12-10", "popularity": 5.308, "original_title": "Panic in the Mailroom", "backdrop_path": "/sB8KE4wg9ijNl0SLG9IyEy2vxOq.jpg", "vote_count": 82, "video": false, "adult": false, "vote_average": 6.9, "media_type": "movie", "genre_ids": [16, 35, 10751, 878], "id": 229405, "original_language": "en"}, {"poster_path": "/lS6ek8S3xDPhoG7dAUVANrmpkVs.jpg", "title": "Minions: Movie Auditions", "overview": "", "release_date": "2013-01-01", "popularity": 0.6, "original_title": "Minions: Movie Auditions", "backdrop_path": "/zKDDcqXYIBvsW5zutKigk85wKup.jpg", "vote_count": 7, "video": false, "adult": false, "vote_average": 4, "media_type": "movie", "genre_ids": [], "id": 360848, "original_language": "en"}, {"poster_path": "/9SFFtelj7IPSfMUqVCsq03lcl3s.jpg", "title": "Cro Minion", "overview": "Two minions have to babysit a little Neanderthal baby.", "release_date": "2015-11-04", "popularity": 4.371, "original_title": "Cro Minion", "backdrop_path": "/taCWtbPrBNooPqavM9dktdPYtIj.jpg", "vote_count": 39, "video": false, "adult": false, "vote_average": 6, "media_type": "movie", "genre_ids": [16, 10751], "id": 366141, "original_language": "en"}, {"poster_path": "/jA1SbD4qty5rtrEB62EJU6ialCQ.jpg", "title": "Despicable Me Presents: Minion Madness", "overview": "3 Mini movies that feature the Minions. Orientation Day, Home Makeover and Banana.", "release_date": "2010-12-15", "popularity": 4.438, "original_title": "Despicable Me Presents: Minion Madness", "backdrop_path": "/tbdS5DWxsRhVQYjK2OXEy6qGK4l.jpg", "vote_count": 107, "video": true, "adult": false, "vote_average": 6.7, "media_type": "movie", "genre_ids": [10751, 12, 16, 35], "id": 286558, "original_language": "en"}, {"poster_path": "/yoWytTZRJjGXhkRcxVBvnOHKX85.jpg", "title": "Minions: 3 Mini-Movie Collection", "overview": "The Minions are back along with some new friends in three hilariously fun short films: Competition, Cro Minion, and Binky Nelson Unpacified.", "release_date": "2016-10-11", "popularity": 0.773, "original_title": "Minions: 3 Mini-Movie Collection", "backdrop_path": "/7bBOpBMTf0OfjZRLlWZPbPrJkHW.jpg", "vote_count": 12, "video": true, "adult": false, "vote_average": 6.4, "media_type": "movie", "genre_ids": [10751, 16], "id": 440769, "original_language": "en"}, {"poster_path": "/yXRM0fNkovqcZqQP25rYU8eaYwy.jpg", "title": "Yellow is the New Black", "overview": "Short film taking place during the events of Despicable Me 3 (2017).", "release_date": "2018-08-11", "popularity": 4.658, "original_title": "Yellow is the New Black", "backdrop_path": "/fPt0eH25fgzGBVUxYa1anRaQD8X.jpg", "vote_count": 10, "video": false, "adult": false, "vote_average": 6.1, "media_type": "movie", "genre_ids": [16, 35, 10751, 80], "id": 553903, "original_language": "en"}, {"poster_path": "/v5mM7mBfb6NrSSBgwzKpva7iQZD.jpg", "title": "Alice u l Minions fil Pajjiz tal Meravilji", "overview": "", "release_date": "2016-12-25", "popularity": 0.6, "original_title": "Alice u l Minions fil Pajjiz tal Meravilji", "backdrop_path": null, "vote_count": 0, "video": false, "adult": false, "vote_average": 0, "media_type": "movie", "genre_ids": [35], "id": 573729, "original_language": "mt"}]}