{"total_results": 157, "total_pages": 8, "page": 1, "results": [{"origin_country": ["SG", "US"], "poster_path": "/p6s2svEHHLsQ1TOw4Si54c1dD5L.jpg", "name": "Star Wars: The Clone Wars", "overview": "Yoda, Obi-Wan Kenobi, Anakin Skywalker, Mace Windu and other Jedi Knights lead the Grand Army of the Republic against the droid army of the Separatists.", "popularity": 42.606, "original_name": "Star Wars: The Clone Wars", "backdrop_path": "/gAlEO2hFU29uFv6RcC7efps0iL9.jpg", "first_air_date": "2008-10-03", "vote_count": 179, "vote_average": 7.49, "media_type": "tv", "original_language": "en", "id": 4194, "genre_ids": [10759, 16, 10765]}, {"poster_path": "/btTdmkgIvOi0FFip1sPuZI2oQG6.jpg", "title": "Star Wars", "overview": "Princess Leia is captured and held hostage by the evil Imperial forces in their effort to take over the galactic Empire. Venturesome Luke Skywalker and dashing captain Han Solo team together with the loveable robot duo R2-D2 and C-3PO to rescue the beautiful princess and restore peace and justice in the Empire.", "release_date": "1977-05-25", "popularity": 39.377, "original_title": "Star Wars", "backdrop_path": "/4iJfYYoQzZcONB9hNzg0J0wWyPH.jpg", "vote_count": 11392, "video": false, "adult": false, "vote_average": 8.2, "media_type": "movie", "genre_ids": [12, 28, 878], "id": 11, "original_language": "en"}, {"origin_country": ["US"], "poster_path": "/dfzbkhKMnkdwiG1AAIJnrc9SDdY.jpg", "name": "Star Wars Rebels", "overview": "Set between the events of Star Wars: Episodes III and IV, the story unfolds during a dark time when the evil Galactic Empire is tightening its grip of power on the galaxy. Imperial forces have occupied a remote planet and are ruining the lives of its people. The motley but clever crew of the starship Ghost \u2014 cowboy Jedi Kanan, ace pilot Hera, street-smart teenager Ezra, the \u201cmuscle\u201d Zeb, warrior firebrand Sabine, and cantankerous old astromech droid Chopper \u2014 is among a select few who are brave enough to stand against the Empire. Together, they will face threatening new villains, encounter colorful adversaries, embark on thrilling adventures, and become heroes with the power to ignite a rebellion.", "popularity": 32.968, "original_name": "Star Wars Rebels", "backdrop_path": "/2haokMQ2dFQK2z1R9gZrH9qAeqk.jpg", "first_air_date": "2014-10-13", "vote_count": 157, "vote_average": 7.11, "media_type": "tv", "original_language": "en", "id": 60554, "genre_ids": [10759, 16]}, {"origin_country": ["US"], "poster_path": "/hHPbh6mJkpxGREMKgJ9FpZNlxPd.jpg", "name": "Star Wars Resistance", "overview": "Kazuda Xiono, a young pilot for the Resistance, is tasked with a top secret mission to investigate the First Order, a growing threat in the galaxy.", "popularity": 14.721, "original_name": "Star Wars Resistance", "backdrop_path": "/4y3J0MN84Ylqy5Vc4cwE6Zdga99.jpg", "first_air_date": "2018-10-07", "vote_count": 9, "vote_average": 6.33, "media_type": "tv", "original_language": "en", "id": 79093, "genre_ids": [10765, 16, 10759]}, {"origin_country": ["US"], "poster_path": "/3Uv9vwC8t8h9YXALdZFzDNihfku.jpg", "name": "Star Wars: Clone Wars", "overview": "Star Wars: Clone Wars is an Emmy Award- and Annie Award-winning American animated microseries set in the Star Wars universe.\n\nChronologically, the series takes place during the three-year time period between the prequel films Attack of the Clones and Revenge of the Sith. The show depicted the actions of various characters in the Star Wars prequel trilogy, including Anakin Skywalker, Obi-Wan Kenobi, Mace Windu, and other Knights of the Jedi Order during the conflict, leading the clone trooper forces of the Galactic Republic against the battle droid armies of the Confederacy of Independent Systems and the Sith.", "popularity": 6.972, "original_name": "Star Wars: Clone Wars", "backdrop_path": "/3cm01zF1SBEhYfmpsPiDqIe2Rcn.jpg", "first_air_date": "2003-11-07", "vote_count": 47, "vote_average": 7.25, "media_type": "tv", "original_language": "en", "id": 3122, "genre_ids": [10759, 16]}, {"poster_path": "/kOVEVeg59E0wsnXmF9nrh6OmWII.jpg", "title": "Star Wars: The Last Jedi", "overview": "Rey develops her newly discovered abilities with the guidance of Luke Skywalker, who is unsettled by the strength of her powers. Meanwhile, the Resistance prepares to do battle with the First Order.", "release_date": "2017-12-13", "popularity": 40.008, "original_title": "Star Wars: The Last Jedi", "backdrop_path": "/baNQpUlmX8shVmJBGHMSL5Y6MBl.jpg", "vote_count": 8468, "video": false, "adult": false, "vote_average": 7, "media_type": "movie", "genre_ids": [14, 12, 878, 28], "id": 181808, "original_language": "en"}, {"poster_path": "/3IGbjc5ZC5yxim5W0sFING2kdcz.jpg", "title": "Solo: A Star Wars Story", "overview": "Through a series of daring escapades deep within a dark and dangerous criminal underworld, Han Solo meets his mighty future copilot Chewbacca and encounters the notorious gambler Lando Calrissian.", "release_date": "2018-05-15", "popularity": 37.976, "original_title": "Solo: A Star Wars Story", "backdrop_path": "/5DUqFLgkLsJxyqPCAcgTivZy2SX.jpg", "vote_count": 3767, "video": false, "adult": false, "vote_average": 6.6, "media_type": "movie", "genre_ids": [28, 12, 878], "id": 348350, "original_language": "en"}, {"poster_path": "/weUSwMdQIa3NaXVzwUoIIcAi85d.jpg", "title": "Star Wars: The Force Awakens", "overview": "Thirty years after defeating the Galactic Empire, Han Solo and his allies face a new threat from the evil Kylo Ren and his army of Stormtroopers.", "release_date": "2015-12-15", "popularity": 33.982, "original_title": "Star Wars: The Force Awakens", "backdrop_path": "/njv65RTipNSTozFLuF85jL0bcQe.jpg", "vote_count": 12573, "video": false, "adult": false, "vote_average": 7.4, "media_type": "movie", "genre_ids": [28, 12, 878, 14], "id": 140607, "original_language": "en"}, {"poster_path": "/xd6yhmtS6mEURZLwUDT5raEMbf.jpg", "title": "Star Wars: The Clone Wars", "overview": "Set between Episode II and III the Clone Wars is the first computer animated Star Wars film. Anakin and Obi Wan must find out who kidnapped Jabba the Hutts son and return him safely. The Seperatists will try anything to stop them and ruin any chance of a diplomatic agreement between the Hutt's and the Republic.", "release_date": "2008-08-05", "popularity": 11.08, "original_title": "Star Wars: The Clone Wars", "backdrop_path": "/gmLMaDXi4lFWG8WitaCYOJS5GtL.jpg", "vote_count": 797, "video": false, "adult": false, "vote_average": 5.9, "media_type": "movie", "genre_ids": [16, 28, 878, 12], "id": 12180, "original_language": "en"}, {"poster_path": "/qjiskwlV1qQzRCjpV0cL9pEMF9a.jpg", "title": "Rogue One: A Star Wars Story", "overview": "A rogue band of resistance fighters unite for a mission to steal the Death Star plans and bring a new hope to the galaxy.", "release_date": "2016-12-14", "popularity": 21.758, "original_title": "Rogue One: A Star Wars Story", "backdrop_path": "/tZjVVIYXACV4IIIhXeIM59ytqwS.jpg", "vote_count": 9235, "video": false, "adult": false, "vote_average": 7.5, "media_type": "movie", "genre_ids": [28, 12, 878], "id": 330459, "original_language": "en"}, {"origin_country": ["US", "CA"], "poster_path": "/wajb1xWweHREBxWl58gE1QKjoTy.jpg", "name": "Star Wars: Droids", "overview": "Star Wars: Droids, also known as Droids: The Adventures of R2-D2 and C-3PO, and 2004 re-released on DVD as Star Wars Animated Adventures: Droids, is an animated television series that features the exploits of R2-D2 and C-3PO, the droids who have appeared in all six Star Wars films. The series takes place between the events depicted in Star Wars Episode III: Revenge of the Sith and Star Wars Episode IV: A New Hope.\n\nOver the course of the series, the droids team up with four different sets of masters. The series is divided up into three cycles: at the beginning of each, the droids usually run into their new masters in an accidental way, and at the end of each cycle, they usually are forced to leave their masters for one reason or another. The Great Heep, a television special following the series, served as a prequel to the third Mungo Baobab cycle.\n\nThe series' opening theme, \"Trouble Again,\" was performed by Stewart Copeland of the Police and written by Copeland and Derek Holt.", "popularity": 5.131, "original_name": "Star Wars: Droids", "backdrop_path": "/5AS13jFoVGB7fq5p4HVONKPjxQd.jpg", "first_air_date": "1985-09-07", "vote_count": 11, "vote_average": 4.27, "media_type": "tv", "original_language": "en", "id": 25, "genre_ids": [10762, 16, 35, 10759]}, {"origin_country": ["US"], "poster_path": "/2eSTFO6PimOGORZrhjlyU2hqeiR.jpg", "name": "Lego Star Wars: Droid Tales", "overview": "Following their victory celebration in the Ewok village on Endor, seen at the close of Star Wars: Return of the Jedi, C-3PO and R2-D2 have gathered to regale Luke, Leia, Han, Chewbacca and the other Rebels with the tales of their adventures that led to the events of Star Wars: The Phantom Menace. An accidental kidnapping occurs while the droids are reminiscing and suddenly viewers are taken on a new adventure that leads to encounters with familiar faces and places that prompt the re-telling of the entire saga. The series offers all of the playful humor that viewers expect from LEGO Star Wars.", "popularity": 5.428, "original_name": "Lego Star Wars: Droid Tales", "backdrop_path": "/5NCO3bOn8N8cMaJAxKNtpaBZPZH.jpg", "first_air_date": "2015-10-05", "vote_count": 10, "vote_average": 5.38, "media_type": "tv", "original_language": "en", "id": 63722, "genre_ids": [16]}, {"poster_path": "/n8V09dDc02KsSN6Q4hC2BX6hN8X.jpg", "title": "Star Wars: Episode I - The Phantom Menace", "overview": "Anakin Skywalker, a young slave strong with the Force, is discovered on Tatooine. Meanwhile, the evil Sith have returned, enacting their plot for revenge against the Jedi.", "release_date": "1999-05-19", "popularity": 19.563, "original_title": "Star Wars: Episode I - The Phantom Menace", "backdrop_path": "/v6lRzOActebITc9rizhNAdwQR1O.jpg", "vote_count": 7904, "video": false, "adult": false, "vote_average": 6.4, "media_type": "movie", "genre_ids": [12, 28, 878], "id": 1893, "original_language": "en"}, {"poster_path": "/3ussU5kEibDvTIe13rPDkBdI5S0.jpg", "title": "Star Wars: The Rise of Skywalker", "overview": "The next installment in the franchise and the conclusion of the \u201cStar Wars\u201c sequel trilogy as well as the \u201cSkywalker Saga\u201c.", "release_date": "2019-12-18", "popularity": 12.983, "original_title": "Star Wars: The Rise of Skywalker", "backdrop_path": "/gQ8v57tIDIpctD0zg3VDJGL2GjS.jpg", "vote_count": 0, "video": false, "adult": false, "vote_average": 0, "media_type": "movie", "genre_ids": [28, 12, 878], "id": 181812, "original_language": "en"}, {"poster_path": "/kWKspQ7YiQ82xXM1jVbIbqh5OyV.jpg", "title": "Robot Chicken: Star Wars", "overview": "Fans of Adult Swim's \"Robot Chicken\" and the Star Wars movie franchise won't want to miss this collection of 30 sketches. This hilarious compilation features an array of skits -- such as \"Darth Vader's Collect Call\" and \"Inside the AT-AT\" -- as well as the incredible voice talents of Hulk Hogan, Malcolm McDowell, Conan O'Brien and even the original Luke Skywalker himself, Mark Hamill.", "release_date": "2007-07-17", "popularity": 5.328, "original_title": "Robot Chicken: Star Wars", "backdrop_path": "/gZxY7VDOI48gjhnDJK1E6n9uHWk.jpg", "vote_count": 111, "video": false, "adult": false, "vote_average": 7.2, "media_type": "movie", "genre_ids": [16, 35, 878], "id": 42979, "original_language": "en"}, {"origin_country": ["CA", "US"], "poster_path": "/uv7QkoePPK5PfpYVVim6JI8DEpO.jpg", "name": "Star Wars: Ewoks", "overview": "Star Wars: Ewoks is an American/Canadian animated television series featuring the Ewok characters introduced in Star Wars Episode VI: Return of the Jedi. It aired for two seasons between 1985 and 1986.\n\nThe series was produced by Nelvana on behalf of Lucasfilm and broadcast on ABC, both by itself and later, as part of The Ewoks and Droids Adventure Hour. The first season was advertised as simply Ewoks, but the second season was advertised as The All New Ewoks. The series lasted 35 episodes.", "popularity": 3.582, "original_name": "Star Wars: Ewoks", "backdrop_path": "/a2oOSExT1KrkczNafY3nbmwd403.jpg", "first_air_date": "1985-09-07", "vote_count": 5, "vote_average": 6, "media_type": "tv", "original_language": "en", "id": 3478, "genre_ids": [16, 10765]}, {"poster_path": "/2vcNFtrZXNwIcBgH5e2xXCmVR8t.jpg", "title": "Star Wars: Episode II - Attack of the Clones", "overview": "Ten years after the invasion of Naboo, the galaxy is on the brink of civil war. Under the leadership of a renegade Jedi named Count Dooku, thousands of solar systems threaten to break away from the Galactic Republic. When an assassination attempt is made on Senator Padm\u00e9 Amidala, the former Queen of Naboo, twenty-year-old Jedi apprentice Anakin Skywalker is assigned to protect her. In the course of his mission, Anakin discovers his love for Padm\u00e9 as well as his own darker side. Soon, Anakin, Padm\u00e9, and Obi-Wan Kenobi are drawn into the heart of the Separatist movement and the beginning of the Clone Wars.", "release_date": "2002-05-15", "popularity": 14.764, "original_title": "Star Wars: Episode II - Attack of the Clones", "backdrop_path": "/1Slt26IGf2XHqv8xjEJ7LMZqCYb.jpg", "vote_count": 7149, "video": false, "adult": false, "vote_average": 6.5, "media_type": "movie", "genre_ids": [12, 28, 878], "id": 1894, "original_language": "en"}, {"poster_path": "/tgr5Pdy7ehZYBqBkN2K7Q02xgOb.jpg", "title": "Star Wars: Episode III - Revenge of the Sith", "overview": "Years after the onset of the Clone Wars, the noble Jedi Knights lead a massive clone army into a galaxy-wide battle against the Separatists. When the sinister Sith unveil a thousand-year-old plot to rule the galaxy, the Republic crumbles and from its ashes rises the evil Galactic Empire. Jedi hero Anakin Skywalker is seduced by the dark side of the Force to become the Emperor's new apprentice \u2013 Darth Vader. The Jedi are decimated, as Obi-Wan Kenobi and Jedi Master Yoda are forced into hiding. The only hope for the galaxy are Anakin's own offspring \u2013 the twin children born in secrecy who will grow up to become heroes.", "release_date": "2005-05-17", "popularity": 14.527, "original_title": "Star Wars: Episode III - Revenge of the Sith", "backdrop_path": "/wUYTfFbfPiZC6Lcyt1nonr69ZmK.jpg", "vote_count": 7406, "video": false, "adult": false, "vote_average": 7.3, "media_type": "movie", "genre_ids": [878, 12, 28], "id": 1895, "original_language": "en"}, {"origin_country": ["US"], "poster_path": "/a5d2y264VgYUvpKUNNT6EbL1Cwb.jpg", "name": "Star Wars: Forces of Destiny", "overview": "An animated micro-series starring Rey, Jyn Erso, Princess Leia, Ahsoka Tano, and more. Small moments and everyday decisions shape a larger heroic saga.", "popularity": 4.508, "original_name": "Star Wars: Forces of Destiny", "backdrop_path": "/rfxCWSwzkeeQne9Mb8kNPDqZYBC.jpg", "first_air_date": "2017-07-03", "vote_count": 5, "vote_average": 4.8, "media_type": "tv", "original_language": "en", "id": 71412, "genre_ids": [10765, 16, 10759, 10751]}, {"poster_path": "/3MsSWyFFWGNOneSfLv4Qtw8xThg.jpg", "title": "The Star Wars Holiday Special", "overview": "Luke Skywalker and Han Solo battle evil Imperial forces to help Chewbacca reach his imperiled family on the Wookiee planet - in time for Life Day, their most important day of the year!", "release_date": "1978-12-01", "popularity": 6.481, "original_title": "The Star Wars Holiday Special", "backdrop_path": "/ie6u0zegHcVJEtHSpYn0KgEogrD.jpg", "vote_count": 187, "video": false, "adult": false, "vote_average": 3, "media_type": "movie", "genre_ids": [12, 35, 10751, 878, 10770], "id": 74849, "original_language": "en"}]}